<?xml version="1.0" encoding="UTF-8" standalone="no"?>
<graphml xmlns="http://graphml.graphdrawing.org/xmlns" xmlns:java="http://www.yworks.com/xml/yfiles-common/1.0/java" xmlns:sys="http://www.yworks.com/xml/yfiles-common/markup/primitives/2.0" xmlns:x="http://www.yworks.com/xml/yfiles-common/markup/2.0" xmlns:xsi="http://www.w3.org/2001/XMLSchema-instance" xmlns:y="http://www.yworks.com/xml/graphml" xmlns:yed="http://www.yworks.com/xml/yed/3" xsi:schemaLocation="http://graphml.graphdrawing.org/xmlns http://www.yworks.com/xml/schema/graphml/1.1/ygraphml.xsd">
  <!--Created by yEd 3.15.0.2-->
  <key attr.name="Description" attr.type="string" for="graph" id="d0"/>
  <key for="port" id="d1" yfiles.type="portgraphics"/>
  <key for="port" id="d2" yfiles.type="portgeometry"/>
  <key for="port" id="d3" yfiles.type="portuserdata"/>
  <key attr.name="url" attr.type="string" for="node" id="d4"/>
  <key attr.name="description" attr.type="string" for="node" id="d5"/>
  <key for="node" id="d6" yfiles.type="nodegraphics"/>
  <key for="graphml" id="d7" yfiles.type="resources"/>
  <key attr.name="url" attr.type="string" for="edge" id="d8"/>
  <key attr.name="description" attr.type="string" for="edge" id="d9"/>
  <key for="edge" id="d10" yfiles.type="edgegraphics"/>
  <graph edgedefault="directed" id="G">
    <data key="d0"/>
    <node id="n0" yfiles.foldertype="group">
      <data key="d4"/>
      <data key="d6">
        <y:ProxyAutoBoundsNode>
          <y:Realizers active="0">
            <y:GroupNode>
              <y:Geometry height="93.46105995783728" width="618.5595703125" x="487.8388671875" y="-1573.9515361483134"/>
              <y:Fill color="#F5F5F5" transparent="false"/>
              <y:BorderStyle color="#000000" type="line" width="1.0"/>
              <y:NodeLabel alignment="right" autoSizePolicy="node_width" backgroundColor="#EBEBEB" borderDistance="0.0" fontFamily="Dialog" fontSize="15" fontStyle="plain" hasLineColor="false" height="21.4609375" modelName="internal" modelPosition="t" textColor="#000000" visible="true" width="618.5595703125" x="0.0" y="0.0">Список работ</y:NodeLabel>
              <y:Shape type="roundrectangle"/>
              <y:State closed="false" closedHeight="50.0" closedWidth="50.0" innerGraphDisplayEnabled="false"/>
              <y:Insets bottom="15" bottomF="15.0" left="15" leftF="15.0" right="15" rightF="15.0" top="15" topF="15.0"/>
              <y:BorderInsets bottom="1" bottomF="1.0" left="0" leftF="0.0" right="0" rightF="0.0" top="1" topF="1.0001224578372785"/>
            </y:GroupNode>
            <y:GroupNode>
              <y:Geometry height="50.0" width="50.0" x="0.0" y="60.0"/>
              <y:Fill color="#F5F5F5" transparent="false"/>
              <y:BorderStyle color="#000000" type="dashed" width="1.0"/>
              <y:NodeLabel alignment="right" autoSizePolicy="node_width" backgroundColor="#EBEBEB" borderDistance="0.0" fontFamily="Dialog" fontSize="15" fontStyle="plain" hasLineColor="false" height="21.4609375" modelName="internal" modelPosition="t" textColor="#000000" visible="true" width="65.201171875" x="-7.6005859375" y="0.0">Folder 3</y:NodeLabel>
              <y:Shape type="roundrectangle"/>
              <y:State closed="true" closedHeight="50.0" closedWidth="50.0" innerGraphDisplayEnabled="false"/>
              <y:Insets bottom="5" bottomF="5.0" left="5" leftF="5.0" right="5" rightF="5.0" top="5" topF="5.0"/>
              <y:BorderInsets bottom="0" bottomF="0.0" left="0" leftF="0.0" right="0" rightF="0.0" top="0" topF="0.0"/>
            </y:GroupNode>
          </y:Realizers>
        </y:ProxyAutoBoundsNode>
      </data>
      <graph edgedefault="directed" id="n0:">
        <node id="n0::n0">
          <data key="d6">
            <y:GenericNode configuration="com.yworks.entityRelationship.small_entity">
              <y:Geometry height="40.0" width="89.515625" x="1001.7763671875" y="-1536.490476190476"/>
              <y:Fill color="#C0C0C0" color2="#B7C9E3" transparent="false"/>
              <y:BorderStyle color="#000000" type="line" width="2.0"/>
              <y:NodeLabel alignment="center" autoSizePolicy="content" fontFamily="Dialog" fontSize="12" fontStyle="plain" hasBackgroundColor="false" hasLineColor="false" height="31.9375" modelName="custom" textColor="#000000" visible="true" width="89.728515625" x="-0.1064453125" y="4.03125">Список работ
WorkList<y:LabelModel>
                  <y:SmartNodeLabelModel distance="4.0"/>
                </y:LabelModel>
                <y:ModelParameter>
                  <y:SmartNodeLabelModelParameter labelRatioX="0.0" labelRatioY="0.0" nodeRatioX="0.0" nodeRatioY="0.0" offsetX="0.0" offsetY="0.0" upX="0.0" upY="-1.0"/>
                </y:ModelParameter>
              </y:NodeLabel>
              <y:StyleProperties>
                <y:Property class="java.lang.Boolean" name="y.view.ShadowNodePainter.SHADOW_PAINTING" value="true"/>
              </y:StyleProperties>
            </y:GenericNode>
          </data>
        </node>
        <node id="n0::n1">
          <data key="d6">
            <y:GenericNode configuration="com.yworks.entityRelationship.small_entity">
              <y:Geometry height="40.0" width="129.6171875" x="506.3818359375" y="-1536.490476190476"/>
              <y:Fill color="#C0C0C0" color2="#B7C9E3" transparent="false"/>
              <y:BorderStyle color="#000000" type="line" width="1.0"/>
              <y:NodeLabel alignment="center" autoSizePolicy="content" fontFamily="Dialog" fontSize="12" fontStyle="plain" hasBackgroundColor="false" hasLineColor="false" height="31.9375" modelName="custom" textColor="#000000" visible="true" width="136.703125" x="-3.54296875" y="4.03125">Строка списка работ
WorkListRecord<y:LabelModel>
                  <y:SmartNodeLabelModel distance="4.0"/>
                </y:LabelModel>
                <y:ModelParameter>
                  <y:SmartNodeLabelModelParameter labelRatioX="0.0" labelRatioY="0.0" nodeRatioX="0.0" nodeRatioY="0.0" offsetX="0.0" offsetY="0.0" upX="0.0" upY="-1.0"/>
                </y:ModelParameter>
              </y:NodeLabel>
              <y:StyleProperties>
                <y:Property class="java.lang.Boolean" name="y.view.ShadowNodePainter.SHADOW_PAINTING" value="true"/>
              </y:StyleProperties>
            </y:GenericNode>
          </data>
        </node>
      </graph>
    </node>
    <node id="n1" yfiles.foldertype="group">
      <data key="d4"/>
      <data key="d6">
        <y:ProxyAutoBoundsNode>
          <y:Realizers active="0">
            <y:GroupNode>
              <y:Geometry height="106.13101903521829" width="341.033203125" x="1005.5234375" y="-696.0309012276786"/>
              <y:Fill color="#F5F5F5" transparent="false"/>
              <y:BorderStyle color="#000000" type="line" width="1.0"/>
              <y:NodeLabel alignment="right" autoSizePolicy="node_width" backgroundColor="#EBEBEB" borderDistance="0.0" fontFamily="Dialog" fontSize="15" fontStyle="plain" hasLineColor="false" height="21.4609375" modelName="internal" modelPosition="t" textColor="#000000" visible="true" width="341.033203125" x="0.0" y="0.0">Список счетов</y:NodeLabel>
              <y:Shape type="roundrectangle"/>
              <y:State closed="false" closedHeight="50.0" closedWidth="50.0" innerGraphDisplayEnabled="false"/>
              <y:Insets bottom="15" bottomF="15.0" left="15" leftF="15.0" right="15" rightF="15.0" top="15" topF="15.0"/>
              <y:BorderInsets bottom="21" bottomF="21.000018601190504" left="0" leftF="0.0" right="0" rightF="0.0" top="1" topF="1.0001224578372785"/>
            </y:GroupNode>
            <y:GroupNode>
              <y:Geometry height="50.0" width="50.0" x="0.0" y="60.0"/>
              <y:Fill color="#F5F5F5" transparent="false"/>
              <y:BorderStyle color="#000000" type="dashed" width="1.0"/>
              <y:NodeLabel alignment="right" autoSizePolicy="node_width" backgroundColor="#EBEBEB" borderDistance="0.0" fontFamily="Dialog" fontSize="15" fontStyle="plain" hasLineColor="false" height="21.4609375" modelName="internal" modelPosition="t" textColor="#000000" visible="true" width="65.201171875" x="-7.6005859375" y="0.0">Folder 5</y:NodeLabel>
              <y:Shape type="roundrectangle"/>
              <y:State closed="true" closedHeight="50.0" closedWidth="50.0" innerGraphDisplayEnabled="false"/>
              <y:Insets bottom="5" bottomF="5.0" left="5" leftF="5.0" right="5" rightF="5.0" top="5" topF="5.0"/>
              <y:BorderInsets bottom="0" bottomF="0.0" left="0" leftF="0.0" right="0" rightF="0.0" top="0" topF="0.0"/>
            </y:GroupNode>
          </y:Realizers>
        </y:ProxyAutoBoundsNode>
      </data>
      <graph edgedefault="directed" id="n1:">
        <node id="n1::n0">
          <data key="d6">
            <y:GenericNode configuration="com.yworks.entityRelationship.small_entity">
              <y:Geometry height="30.0" width="94.595703125" x="1236.5087890625" y="-658.5698412698413"/>
              <y:Fill color="#C0C0C0" color2="#B7C9E3" transparent="false"/>
              <y:BorderStyle color="#000000" type="line" width="2.0"/>
              <y:NodeLabel alignment="center" autoSizePolicy="content" fontFamily="Dialog" fontSize="12" fontStyle="plain" hasBackgroundColor="false" hasLineColor="false" height="17.96875" modelName="custom" textColor="#000000" visible="true" width="95.5" x="-0.4521484375" y="6.015625">Список счетов<y:LabelModel>
                  <y:SmartNodeLabelModel distance="4.0"/>
                </y:LabelModel>
                <y:ModelParameter>
                  <y:SmartNodeLabelModelParameter labelRatioX="0.0" labelRatioY="0.0" nodeRatioX="0.0" nodeRatioY="0.0" offsetX="0.0" offsetY="0.0" upX="0.0" upY="-1.0"/>
                </y:ModelParameter>
              </y:NodeLabel>
              <y:StyleProperties>
                <y:Property class="java.lang.Boolean" name="y.view.ShadowNodePainter.SHADOW_PAINTING" value="true"/>
              </y:StyleProperties>
            </y:GenericNode>
          </data>
        </node>
        <node id="n1::n1">
          <data key="d6">
            <y:GenericNode configuration="com.yworks.entityRelationship.small_entity">
              <y:Geometry height="30.0" width="52.021484375" x="1020.5234375" y="-656.8686507936508"/>
              <y:Fill color="#C0C0C0" color2="#B7C9E3" transparent="false"/>
              <y:BorderStyle color="#000000" type="line" width="1.0"/>
              <y:NodeLabel alignment="center" autoSizePolicy="content" fontFamily="Dialog" fontSize="12" fontStyle="plain" hasBackgroundColor="false" hasLineColor="false" height="31.9375" modelName="custom" textColor="#000000" visible="true" width="46.90234375" x="2.5595703125" y="-0.96875">Счет
Invoice<y:LabelModel>
                  <y:SmartNodeLabelModel distance="4.0"/>
                </y:LabelModel>
                <y:ModelParameter>
                  <y:SmartNodeLabelModelParameter labelRatioX="0.0" labelRatioY="0.0" nodeRatioX="0.0" nodeRatioY="0.0" offsetX="0.0" offsetY="0.0" upX="0.0" upY="-1.0"/>
                </y:ModelParameter>
              </y:NodeLabel>
              <y:StyleProperties>
                <y:Property class="java.lang.Boolean" name="y.view.ShadowNodePainter.SHADOW_PAINTING" value="true"/>
              </y:StyleProperties>
            </y:GenericNode>
          </data>
        </node>
      </graph>
    </node>
    <node id="n2" yfiles.foldertype="group">
      <data key="d4"/>
      <data key="d6">
        <y:ProxyAutoBoundsNode>
          <y:Realizers active="0">
            <y:GroupNode>
              <y:Geometry height="232.20335906498016" width="1180.634765625" x="-29.037109375" y="-232.93578093998016"/>
              <y:Fill color="#F5F5F5" transparent="false"/>
              <y:BorderStyle color="#000000" type="dashed" width="1.0"/>
              <y:NodeLabel alignment="right" autoSizePolicy="node_width" backgroundColor="#EBEBEB" borderDistance="0.0" fontFamily="Dialog" fontSize="15" fontStyle="plain" hasLineColor="false" height="21.4609375" modelName="internal" modelPosition="t" textColor="#000000" visible="true" width="1180.634765625" x="0.0" y="0.0">Изменение количества материалов</y:NodeLabel>
              <y:Shape type="roundrectangle"/>
              <y:State closed="false" closedHeight="50.0" closedWidth="50.0" innerGraphDisplayEnabled="false"/>
              <y:Insets bottom="15" bottomF="15.0" left="15" leftF="15.0" right="15" rightF="15.0" top="15" topF="15.0"/>
              <y:BorderInsets bottom="1" bottomF="1.000018601190476" left="0" leftF="0.0" right="0" rightF="0.0" top="1" topF="1.0001410590277828"/>
            </y:GroupNode>
            <y:GroupNode>
              <y:Geometry height="50.0" width="50.0" x="0.0" y="60.0"/>
              <y:Fill color="#F5F5F5" transparent="false"/>
              <y:BorderStyle color="#000000" type="dashed" width="1.0"/>
              <y:NodeLabel alignment="right" autoSizePolicy="node_width" backgroundColor="#EBEBEB" borderDistance="0.0" fontFamily="Dialog" fontSize="15" fontStyle="plain" hasLineColor="false" height="21.4609375" modelName="internal" modelPosition="t" textColor="#000000" visible="true" width="65.201171875" x="-7.6005859375" y="0.0">Folder 2</y:NodeLabel>
              <y:Shape type="roundrectangle"/>
              <y:State closed="true" closedHeight="50.0" closedWidth="50.0" innerGraphDisplayEnabled="false"/>
              <y:Insets bottom="5" bottomF="5.0" left="5" leftF="5.0" right="5" rightF="5.0" top="5" topF="5.0"/>
              <y:BorderInsets bottom="0" bottomF="0.0" left="0" leftF="0.0" right="0" rightF="0.0" top="0" topF="0.0"/>
            </y:GroupNode>
          </y:Realizers>
        </y:ProxyAutoBoundsNode>
      </data>
      <graph edgedefault="directed" id="n2:">
        <node id="n2::n0">
          <data key="d6">
            <y:GenericNode configuration="com.yworks.entityRelationship.small_entity">
              <y:Geometry height="30.0" width="170.80859375" x="961.1298828125" y="-60.201190476190476"/>
              <y:Fill color="#C0C0C0" color2="#B7C9E3" transparent="false"/>
              <y:BorderStyle color="#000000" type="dashed" width="1.0"/>
              <y:NodeLabel alignment="center" autoSizePolicy="content" fontFamily="Dialog" fontSize="12" fontStyle="plain" hasBackgroundColor="false" hasLineColor="false" height="31.9375" modelName="custom" textColor="#000000" visible="true" width="180.126953125" x="-4.6591796875" y="-0.96875">Использование материалов
MaterialUsage<y:LabelModel>
                  <y:SmartNodeLabelModel distance="4.0"/>
                </y:LabelModel>
                <y:ModelParameter>
                  <y:SmartNodeLabelModelParameter labelRatioX="0.0" labelRatioY="0.0" nodeRatioX="0.0" nodeRatioY="0.0" offsetX="0.0" offsetY="0.0" upX="0.0" upY="-1.0"/>
                </y:ModelParameter>
              </y:NodeLabel>
              <y:StyleProperties>
                <y:Property class="java.lang.Boolean" name="y.view.ShadowNodePainter.SHADOW_PAINTING" value="true"/>
              </y:StyleProperties>
            </y:GenericNode>
          </data>
        </node>
        <node id="n2::n1">
          <data key="d6">
            <y:GenericNode configuration="com.yworks.entityRelationship.small_entity">
              <y:Geometry height="30.0" width="288.962890625" x="0.0" y="-47.701190476190476"/>
              <y:Fill color="#C0C0C0" color2="#B7C9E3" transparent="false"/>
              <y:BorderStyle color="#000000" type="line" width="1.0"/>
              <y:NodeLabel alignment="center" autoSizePolicy="content" fontFamily="Dialog" fontSize="12" fontStyle="plain" hasBackgroundColor="false" hasLineColor="false" height="31.9375" modelName="custom" textColor="#000000" visible="true" width="317.037109375" x="-14.037109375" y="-0.96875">Использование материалов - потратили на заказ
MatereialUsageOrder<y:LabelModel>
                  <y:SmartNodeLabelModel distance="4.0"/>
                </y:LabelModel>
                <y:ModelParameter>
                  <y:SmartNodeLabelModelParameter labelRatioX="0.0" labelRatioY="0.0" nodeRatioX="0.0" nodeRatioY="0.0" offsetX="0.0" offsetY="0.0" upX="0.0" upY="-1.0"/>
                </y:ModelParameter>
              </y:NodeLabel>
              <y:StyleProperties>
                <y:Property class="java.lang.Boolean" name="y.view.ShadowNodePainter.SHADOW_PAINTING" value="true"/>
              </y:StyleProperties>
            </y:GenericNode>
          </data>
        </node>
        <node id="n2::n2">
          <data key="d6">
            <y:GenericNode configuration="com.yworks.entityRelationship.small_entity">
              <y:Geometry height="30.0" width="220.91796875" x="460.7314453125" y="-67.70119047619048"/>
              <y:Fill color="#C0C0C0" color2="#B7C9E3" transparent="false"/>
              <y:BorderStyle color="#000000" type="line" width="1.0"/>
              <y:NodeLabel alignment="center" autoSizePolicy="content" fontFamily="Dialog" fontSize="12" fontStyle="plain" hasBackgroundColor="false" hasLineColor="false" height="31.9375" modelName="custom" textColor="#000000" visible="true" width="236.74609375" x="-7.9140625" y="-0.96875">Использование материалов - прочее
MaterialUsageMisc<y:LabelModel>
                  <y:SmartNodeLabelModel distance="4.0"/>
                </y:LabelModel>
                <y:ModelParameter>
                  <y:SmartNodeLabelModelParameter labelRatioX="0.0" labelRatioY="0.0" nodeRatioX="0.0" nodeRatioY="0.0" offsetX="0.0" offsetY="0.0" upX="0.0" upY="-1.0"/>
                </y:ModelParameter>
              </y:NodeLabel>
              <y:StyleProperties>
                <y:Property class="java.lang.Boolean" name="y.view.ShadowNodePainter.SHADOW_PAINTING" value="true"/>
              </y:StyleProperties>
            </y:GenericNode>
          </data>
        </node>
        <node id="n2::n3">
          <data key="d6">
            <y:GenericNode configuration="com.yworks.entityRelationship.small_entity">
              <y:Geometry height="30.0" width="203.287109375" x="469.546875" y="-194.50595238095238"/>
              <y:Fill color="#C0C0C0" color2="#B7C9E3" transparent="false"/>
              <y:BorderStyle color="#000000" type="line" width="1.0"/>
              <y:NodeLabel alignment="center" autoSizePolicy="content" fontFamily="Dialog" fontSize="12" fontStyle="plain" hasBackgroundColor="false" hasLineColor="false" height="31.9375" modelName="custom" textColor="#000000" visible="true" width="220.931640625" x="-8.822265625" y="-0.96875">Доставка заказанных материалов
MaterialDelivery<y:LabelModel>
                  <y:SmartNodeLabelModel distance="4.0"/>
                </y:LabelModel>
                <y:ModelParameter>
                  <y:SmartNodeLabelModelParameter labelRatioX="0.0" labelRatioY="0.0" nodeRatioX="0.0" nodeRatioY="0.0" offsetX="0.0" offsetY="0.0" upX="0.0" upY="-1.0"/>
                </y:ModelParameter>
              </y:NodeLabel>
              <y:StyleProperties>
                <y:Property class="java.lang.Boolean" name="y.view.ShadowNodePainter.SHADOW_PAINTING" value="true"/>
              </y:StyleProperties>
            </y:GenericNode>
          </data>
        </node>
        <node id="n2::n4">
          <data key="d6">
            <y:GenericNode configuration="com.yworks.entityRelationship.small_entity">
              <y:Geometry height="30.0" width="161.814453125" x="490.283203125" y="-131.10357142857143"/>
              <y:Fill color="#C0C0C0" color2="#B7C9E3" transparent="false"/>
              <y:BorderStyle color="#000000" type="line" width="1.0"/>
              <y:NodeLabel alignment="center" autoSizePolicy="content" fontFamily="Dialog" fontSize="12" fontStyle="plain" hasBackgroundColor="false" hasLineColor="false" height="31.9375" modelName="custom" textColor="#000000" visible="true" width="174.3203125" x="-6.2529296875" y="-0.96875">Поправки инвентаризации
MaterialUsageAdjust<y:LabelModel>
                  <y:SmartNodeLabelModel distance="4.0"/>
                </y:LabelModel>
                <y:ModelParameter>
                  <y:SmartNodeLabelModelParameter labelRatioX="0.0" labelRatioY="0.0" nodeRatioX="0.0" nodeRatioY="0.0" offsetX="0.0" offsetY="0.0" upX="0.0" upY="-1.0"/>
                </y:ModelParameter>
              </y:NodeLabel>
              <y:StyleProperties>
                <y:Property class="java.lang.Boolean" name="y.view.ShadowNodePainter.SHADOW_PAINTING" value="true"/>
              </y:StyleProperties>
            </y:GenericNode>
          </data>
        </node>
      </graph>
    </node>
    <node id="n3" yfiles.foldertype="group">
      <data key="d4"/>
      <data key="d6">
        <y:ProxyAutoBoundsNode>
          <y:Realizers active="0">
            <y:GroupNode>
              <y:Geometry height="85.39859716021829" width="657.4892578125" x="468.3740234375" y="-414.1171301463294"/>
              <y:Fill color="#F5F5F5" transparent="false"/>
              <y:BorderStyle color="#000000" type="line" width="1.0"/>
              <y:NodeLabel alignment="right" autoSizePolicy="node_width" backgroundColor="#EBEBEB" borderDistance="0.0" fontFamily="Dialog" fontSize="15" fontStyle="plain" hasLineColor="false" height="21.4609375" modelName="internal" modelPosition="t" textColor="#000000" visible="true" width="657.4892578125" x="0.0" y="0.0">Список материалов</y:NodeLabel>
              <y:Shape type="roundrectangle"/>
              <y:State closed="false" closedHeight="50.0" closedWidth="50.0" innerGraphDisplayEnabled="false"/>
              <y:Insets bottom="15" bottomF="15.0" left="15" leftF="15.0" right="15" rightF="15.0" top="15" topF="15.0"/>
              <y:BorderInsets bottom="1" bottomF="1.0000186011905043" left="0" leftF="0.0" right="0" rightF="0.0" top="1" topF="1.0001410590277828"/>
            </y:GroupNode>
            <y:GroupNode>
              <y:Geometry height="50.0" width="50.0" x="0.0" y="60.0"/>
              <y:Fill color="#F5F5F5" transparent="false"/>
              <y:BorderStyle color="#000000" type="dashed" width="1.0"/>
              <y:NodeLabel alignment="right" autoSizePolicy="node_width" backgroundColor="#EBEBEB" borderDistance="0.0" fontFamily="Dialog" fontSize="15" fontStyle="plain" hasLineColor="false" height="21.4609375" modelName="internal" modelPosition="t" textColor="#000000" visible="true" width="65.201171875" x="-7.6005859375" y="0.0">Folder 4</y:NodeLabel>
              <y:Shape type="roundrectangle"/>
              <y:State closed="true" closedHeight="50.0" closedWidth="50.0" innerGraphDisplayEnabled="false"/>
              <y:Insets bottom="5" bottomF="5.0" left="5" leftF="5.0" right="5" rightF="5.0" top="5" topF="5.0"/>
              <y:BorderInsets bottom="0" bottomF="0.0" left="0" leftF="0.0" right="0" rightF="0.0" top="0" topF="0.0"/>
            </y:GroupNode>
          </y:Realizers>
        </y:ProxyAutoBoundsNode>
      </data>
      <graph edgedefault="directed" id="n3:">
        <node id="n3::n0">
          <data key="d6">
            <y:GenericNode configuration="com.yworks.entityRelationship.small_entity">
              <y:Geometry height="30.0" width="124.3203125" x="984.3740234375" y="-375.6873015873016"/>
              <y:Fill color="#C0C0C0" color2="#B7C9E3" transparent="false"/>
              <y:BorderStyle color="#000000" type="line" width="2.0"/>
              <y:NodeLabel alignment="center" autoSizePolicy="content" fontFamily="Dialog" fontSize="12" fontStyle="plain" hasBackgroundColor="false" hasLineColor="false" height="31.9375" modelName="custom" textColor="#000000" visible="true" width="128.658203125" x="-2.1689453125" y="-0.96875">Список материалов
MaterialList<y:LabelModel>
                  <y:SmartNodeLabelModel distance="4.0"/>
                </y:LabelModel>
                <y:ModelParameter>
                  <y:SmartNodeLabelModelParameter labelRatioX="0.0" labelRatioY="0.0" nodeRatioX="0.0" nodeRatioY="0.0" offsetX="0.0" offsetY="0.0" upX="0.0" upY="-1.0"/>
                </y:ModelParameter>
              </y:NodeLabel>
              <y:StyleProperties>
                <y:Property class="java.lang.Boolean" name="y.view.ShadowNodePainter.SHADOW_PAINTING" value="true"/>
              </y:StyleProperties>
            </y:GenericNode>
          </data>
        </node>
        <node id="n3::n1">
          <data key="d6">
            <y:GenericNode configuration="com.yworks.entityRelationship.small_entity">
              <y:Geometry height="30.0" width="164.421875" x="488.9794921875" y="-375.6873015873016"/>
              <y:Fill color="#C0C0C0" color2="#B7C9E3" transparent="false"/>
              <y:BorderStyle color="#000000" type="line" width="1.0"/>
              <y:NodeLabel alignment="center" autoSizePolicy="content" fontFamily="Dialog" fontSize="12" fontStyle="plain" hasBackgroundColor="false" hasLineColor="false" height="31.9375" modelName="custom" textColor="#000000" visible="true" width="175.6328125" x="-5.60546875" y="-0.96875">Строка списка материалов
MaterialListRecord<y:LabelModel>
                  <y:SmartNodeLabelModel distance="4.0"/>
                </y:LabelModel>
                <y:ModelParameter>
                  <y:SmartNodeLabelModelParameter labelRatioX="0.0" labelRatioY="0.0" nodeRatioX="0.0" nodeRatioY="0.0" offsetX="0.0" offsetY="0.0" upX="0.0" upY="-1.0"/>
                </y:ModelParameter>
              </y:NodeLabel>
              <y:StyleProperties>
                <y:Property class="java.lang.Boolean" name="y.view.ShadowNodePainter.SHADOW_PAINTING" value="true"/>
              </y:StyleProperties>
            </y:GenericNode>
          </data>
        </node>
      </graph>
    </node>
    <node id="n4" yfiles.foldertype="group">
      <data key="d4"/>
      <data key="d6">
        <y:ProxyAutoBoundsNode>
          <y:Realizers active="0">
            <y:GroupNode>
              <y:Geometry height="212.20335906498008" width="688.6142578125" x="446.421875" y="-1448.8425269717259"/>
              <y:Fill color="#F5F5F5" transparent="false"/>
              <y:BorderStyle color="#000000" type="dashed" width="1.0"/>
              <y:NodeLabel alignment="right" autoSizePolicy="node_width" backgroundColor="#EBEBEB" borderDistance="0.0" fontFamily="Dialog" fontSize="15" fontStyle="plain" hasLineColor="false" height="21.4609375" modelName="internal" modelPosition="t" textColor="#000000" visible="true" width="688.6142578125" x="0.0" y="0.0">Денежные транзакции</y:NodeLabel>
              <y:Shape type="roundrectangle"/>
              <y:State closed="false" closedHeight="50.0" closedWidth="50.0" innerGraphDisplayEnabled="false"/>
              <y:Insets bottom="15" bottomF="15.0" left="15" leftF="15.0" right="15" rightF="15.0" top="15" topF="15.0"/>
              <y:BorderInsets bottom="1" bottomF="1.0000186011907317" left="0" leftF="0.0" right="0" rightF="0.0" top="1" topF="1.0001410590275555"/>
            </y:GroupNode>
            <y:GroupNode>
              <y:Geometry height="50.0" width="50.0" x="0.0" y="60.0"/>
              <y:Fill color="#F5F5F5" transparent="false"/>
              <y:BorderStyle color="#000000" type="dashed" width="1.0"/>
              <y:NodeLabel alignment="right" autoSizePolicy="node_width" backgroundColor="#EBEBEB" borderDistance="0.0" fontFamily="Dialog" fontSize="15" fontStyle="plain" hasLineColor="false" height="21.4609375" modelName="internal" modelPosition="t" textColor="#000000" visible="true" width="65.201171875" x="-7.6005859375" y="0.0">Folder 2</y:NodeLabel>
              <y:Shape type="roundrectangle"/>
              <y:State closed="true" closedHeight="50.0" closedWidth="50.0" innerGraphDisplayEnabled="false"/>
              <y:Insets bottom="5" bottomF="5.0" left="5" leftF="5.0" right="5" rightF="5.0" top="5" topF="5.0"/>
              <y:BorderInsets bottom="0" bottomF="0.0" left="0" leftF="0.0" right="0" rightF="0.0" top="0" topF="0.0"/>
            </y:GroupNode>
          </y:Realizers>
        </y:ProxyAutoBoundsNode>
      </data>
      <graph edgedefault="directed" id="n4:">
        <node id="n4::n0">
          <data key="d6">
            <y:GenericNode configuration="com.yworks.entityRelationship.small_entity">
              <y:Geometry height="30.0" width="204.751953125" x="468.814453125" y="-1283.6079365079365"/>
              <y:Fill color="#C0C0C0" color2="#B7C9E3" transparent="false"/>
              <y:BorderStyle color="#000000" type="line" width="1.0"/>
              <y:NodeLabel alignment="center" autoSizePolicy="content" fontFamily="Dialog" fontSize="12" fontStyle="plain" hasBackgroundColor="false" hasLineColor="false" height="31.9375" modelName="custom" textColor="#000000" visible="true" width="219.537109375" x="-7.392578125" y="-0.96875">Оплата счета
numericTransactionInvoicePayment<y:LabelModel>
                  <y:SmartNodeLabelModel distance="4.0"/>
                </y:LabelModel>
                <y:ModelParameter>
                  <y:SmartNodeLabelModelParameter labelRatioX="0.0" labelRatioY="0.0" nodeRatioX="0.0" nodeRatioY="0.0" offsetX="0.0" offsetY="0.0" upX="0.0" upY="-1.0"/>
                </y:ModelParameter>
              </y:NodeLabel>
              <y:StyleProperties>
                <y:Property class="java.lang.Boolean" name="y.view.ShadowNodePainter.SHADOW_PAINTING" value="true"/>
              </y:StyleProperties>
            </y:GenericNode>
          </data>
        </node>
        <node id="n4::n1">
          <data key="d6">
            <y:GenericNode configuration="com.yworks.entityRelationship.small_entity">
              <y:Geometry height="30.0" width="136.232421875" x="978.41796875" y="-1354.5103174603175"/>
              <y:Fill color="#C0C0C0" color2="#B7C9E3" transparent="false"/>
              <y:BorderStyle color="#000000" type="dashed" width="1.0"/>
              <y:NodeLabel alignment="center" autoSizePolicy="content" fontFamily="Dialog" fontSize="12" fontStyle="plain" hasBackgroundColor="false" hasLineColor="false" height="31.9375" modelName="custom" textColor="#000000" visible="true" width="147.00390625" x="-5.3857421875" y="-0.96875">Денежная транзакция
numericTransaction<y:LabelModel>
                  <y:SmartNodeLabelModel distance="4.0"/>
                </y:LabelModel>
                <y:ModelParameter>
                  <y:SmartNodeLabelModelParameter labelRatioX="0.0" labelRatioY="0.0" nodeRatioX="0.0" nodeRatioY="0.0" offsetX="0.0" offsetY="0.0" upX="0.0" upY="-1.0"/>
                </y:ModelParameter>
              </y:NodeLabel>
              <y:StyleProperties>
                <y:Property class="java.lang.Boolean" name="y.view.ShadowNodePainter.SHADOW_PAINTING" value="true"/>
              </y:StyleProperties>
            </y:GenericNode>
          </data>
        </node>
        <node id="n4::n2">
          <data key="d6">
            <y:GenericNode configuration="com.yworks.entityRelationship.small_entity">
              <y:Geometry height="30.0" width="144.037109375" x="499.171875" y="-1410.4126984126983"/>
              <y:Fill color="#C0C0C0" color2="#B7C9E3" transparent="false"/>
              <y:BorderStyle color="#000000" type="line" width="1.0"/>
              <y:NodeLabel alignment="center" autoSizePolicy="content" fontFamily="Dialog" fontSize="12" fontStyle="plain" hasBackgroundColor="false" hasLineColor="false" height="31.9375" modelName="custom" textColor="#000000" visible="true" width="150.09765625" x="-3.0302734375" y="-0.96875">Разные траты
numericTransactionMisc<y:LabelModel>
                  <y:SmartNodeLabelModel distance="4.0"/>
                </y:LabelModel>
                <y:ModelParameter>
                  <y:SmartNodeLabelModelParameter labelRatioX="0.0" labelRatioY="0.0" nodeRatioX="0.0" nodeRatioY="0.0" offsetX="0.0" offsetY="0.0" upX="0.0" upY="-1.0"/>
                </y:ModelParameter>
              </y:NodeLabel>
              <y:StyleProperties>
                <y:Property class="java.lang.Boolean" name="y.view.ShadowNodePainter.SHADOW_PAINTING" value="true"/>
              </y:StyleProperties>
            </y:GenericNode>
          </data>
        </node>
        <node id="n4::n3">
          <data key="d6">
            <y:GenericNode configuration="com.yworks.entityRelationship.small_entity">
              <y:Geometry height="30.0" width="135.37109375" x="503.5048828125" y="-1347.0103174603175"/>
              <y:Fill color="#C0C0C0" color2="#B7C9E3" transparent="false"/>
              <y:BorderStyle color="#000000" type="line" width="1.0"/>
              <y:NodeLabel alignment="center" autoSizePolicy="content" fontFamily="Dialog" fontSize="12" fontStyle="plain" hasBackgroundColor="false" hasLineColor="false" height="31.9375" modelName="custom" textColor="#000000" visible="true" width="140.857421875" x="-2.7431640625" y="-0.96875">Зар. плата
numericTransferSalary<y:LabelModel>
                  <y:SmartNodeLabelModel distance="4.0"/>
                </y:LabelModel>
                <y:ModelParameter>
                  <y:SmartNodeLabelModelParameter labelRatioX="0.0" labelRatioY="0.0" nodeRatioX="0.0" nodeRatioY="0.0" offsetX="0.0" offsetY="0.0" upX="0.0" upY="-1.0"/>
                </y:ModelParameter>
              </y:NodeLabel>
              <y:StyleProperties>
                <y:Property class="java.lang.Boolean" name="y.view.ShadowNodePainter.SHADOW_PAINTING" value="true"/>
              </y:StyleProperties>
            </y:GenericNode>
          </data>
        </node>
      </graph>
    </node>
    <node id="n5">
      <data key="d6">
        <y:GenericNode configuration="com.yworks.entityRelationship.small_entity">
          <y:Geometry height="40.0" width="91.94140625" x="1000.5634765625" y="-495.7650793650794"/>
          <y:Fill color="#C0C0C0" color2="#B7C9E3" transparent="false"/>
          <y:BorderStyle color="#000000" type="line" width="2.0"/>
          <y:NodeLabel alignment="center" autoSizePolicy="content" fontFamily="Dialog" fontSize="12" fontStyle="plain" hasBackgroundColor="false" hasLineColor="false" height="31.9375" modelName="custom" textColor="#000000" visible="true" width="93.296875" x="-0.677734375" y="4.03125">Статус заказа
OrderStatus<y:LabelModel>
              <y:SmartNodeLabelModel distance="4.0"/>
            </y:LabelModel>
            <y:ModelParameter>
              <y:SmartNodeLabelModelParameter labelRatioX="0.0" labelRatioY="0.0" nodeRatioX="0.0" nodeRatioY="0.0" offsetX="0.0" offsetY="0.0" upX="0.0" upY="-1.0"/>
            </y:ModelParameter>
          </y:NodeLabel>
          <y:StyleProperties>
            <y:Property class="java.lang.Boolean" name="y.view.ShadowNodePainter.SHADOW_PAINTING" value="true"/>
          </y:StyleProperties>
        </y:GenericNode>
      </data>
    </node>
    <node id="n6">
      <data key="d6">
        <y:GenericNode configuration="com.yworks.entityRelationship.small_entity">
          <y:Geometry height="30.0" width="121.853515625" x="985.607421875" y="-557.4662698412699"/>
          <y:Fill color="#C0C0C0" color2="#B7C9E3" transparent="false"/>
          <y:BorderStyle color="#000000" type="line" width="2.0"/>
          <y:NodeLabel alignment="center" autoSizePolicy="content" fontFamily="Dialog" fontSize="12" fontStyle="plain" hasBackgroundColor="false" hasLineColor="false" height="31.9375" modelName="custom" textColor="#000000" visible="true" width="128.265625" x="-3.2060546875" y="-0.96875">Текст комментария
Comment<y:LabelModel>
              <y:SmartNodeLabelModel distance="4.0"/>
            </y:LabelModel>
            <y:ModelParameter>
              <y:SmartNodeLabelModelParameter labelRatioX="0.0" labelRatioY="0.0" nodeRatioX="0.0" nodeRatioY="0.0" offsetX="0.0" offsetY="0.0" upX="0.0" upY="-1.0"/>
            </y:ModelParameter>
          </y:NodeLabel>
          <y:StyleProperties>
            <y:Property class="java.lang.Boolean" name="y.view.ShadowNodePainter.SHADOW_PAINTING" value="true"/>
          </y:StyleProperties>
        </y:GenericNode>
      </data>
    </node>
    <node id="n7">
      <data key="d6">
        <y:GenericNode configuration="com.yworks.entityRelationship.small_entity">
          <y:Geometry height="30.0" width="73.091796875" x="1009.98828125" y="-1204.2055555555555"/>
          <y:Fill color="#C0C0C0" color2="#B7C9E3" transparent="false"/>
          <y:BorderStyle color="#000000" type="line" width="2.0"/>
          <y:NodeLabel alignment="center" autoSizePolicy="content" fontFamily="Dialog" fontSize="12" fontStyle="plain" hasBackgroundColor="false" hasLineColor="false" height="31.9375" modelName="custom" textColor="#000000" visible="true" width="72.619140625" x="0.236328125" y="-0.96875">Сотрудник
Employee<y:LabelModel>
              <y:SmartNodeLabelModel distance="4.0"/>
            </y:LabelModel>
            <y:ModelParameter>
              <y:SmartNodeLabelModelParameter labelRatioX="0.0" labelRatioY="0.0" nodeRatioX="0.0" nodeRatioY="0.0" offsetX="0.0" offsetY="0.0" upX="0.0" upY="-1.0"/>
            </y:ModelParameter>
          </y:NodeLabel>
          <y:StyleProperties>
            <y:Property class="java.lang.Boolean" name="y.view.ShadowNodePainter.SHADOW_PAINTING" value="true"/>
          </y:StyleProperties>
        </y:GenericNode>
      </data>
    </node>
    <node id="n8">
      <data key="d6">
        <y:GenericNode configuration="com.yworks.entityRelationship.small_entity">
          <y:Geometry height="30.0" width="201.376953125" x="470.501953125" y="-695.245238095238"/>
          <y:Fill color="#C0C0C0" color2="#B7C9E3" transparent="false"/>
          <y:BorderStyle color="#000000" type="line" width="1.0"/>
          <y:NodeLabel alignment="center" autoSizePolicy="content" fontFamily="Dialog" fontSize="12" fontStyle="plain" hasBackgroundColor="false" hasLineColor="false" height="31.9375" modelName="custom" textColor="#000000" visible="true" width="217.22265625" x="-7.9228515625" y="-0.96875">Стандартные жалания/проблемы
Solutions<y:LabelModel>
              <y:SmartNodeLabelModel distance="4.0"/>
            </y:LabelModel>
            <y:ModelParameter>
              <y:SmartNodeLabelModelParameter labelRatioX="0.0" labelRatioY="0.0" nodeRatioX="0.0" nodeRatioY="0.0" offsetX="0.0" offsetY="0.0" upX="0.0" upY="-1.0"/>
            </y:ModelParameter>
          </y:NodeLabel>
          <y:StyleProperties>
            <y:Property class="java.lang.Boolean" name="y.view.ShadowNodePainter.SHADOW_PAINTING" value="true"/>
          </y:StyleProperties>
        </y:GenericNode>
      </data>
    </node>
    <node id="n9">
      <data key="d6">
        <y:GenericNode configuration="com.yworks.entityRelationship.small_entity">
          <y:Geometry height="30.0" width="283.736328125" x="1141.9384765625" y="-487.4662698412698"/>
          <y:Fill color="#C0C0C0" color2="#B7C9E3" transparent="false"/>
          <y:BorderStyle color="#000000" type="line" width="1.0"/>
          <y:NodeLabel alignment="center" autoSizePolicy="content" fontFamily="Dialog" fontSize="12" fontStyle="plain" hasBackgroundColor="false" hasLineColor="false" height="31.9375" modelName="custom" textColor="#000000" visible="true" width="313.263671875" x="-14.763671875" y="-0.96875">Когда либо использованные платежные данные
PaymentAddress<y:LabelModel>
              <y:SmartNodeLabelModel distance="4.0"/>
            </y:LabelModel>
            <y:ModelParameter>
              <y:SmartNodeLabelModelParameter labelRatioX="0.0" labelRatioY="0.0" nodeRatioX="0.0" nodeRatioY="0.0" offsetX="0.0" offsetY="0.0" upX="0.0" upY="-1.0"/>
            </y:ModelParameter>
          </y:NodeLabel>
          <y:StyleProperties>
            <y:Property class="java.lang.Boolean" name="y.view.ShadowNodePainter.SHADOW_PAINTING" value="true"/>
          </y:StyleProperties>
        </y:GenericNode>
      </data>
    </node>
    <node id="n10">
      <data key="d6">
        <y:GenericNode configuration="com.yworks.entityRelationship.small_entity">
          <y:Geometry height="30.0" width="75.669921875" x="1475.6748046875" y="-487.4662698412698"/>
          <y:Fill color="#C0C0C0" color2="#B7C9E3" transparent="false"/>
          <y:BorderStyle color="#000000" type="line" width="1.0"/>
          <y:NodeLabel alignment="center" autoSizePolicy="content" fontFamily="Dialog" fontSize="12" fontStyle="plain" hasBackgroundColor="false" hasLineColor="false" height="17.96875" modelName="custom" textColor="#000000" visible="true" width="74.728515625" x="0.470703125" y="6.015625">Поставщик<y:LabelModel>
              <y:SmartNodeLabelModel distance="4.0"/>
            </y:LabelModel>
            <y:ModelParameter>
              <y:SmartNodeLabelModelParameter labelRatioX="0.0" labelRatioY="0.0" nodeRatioX="0.0" nodeRatioY="0.0" offsetX="0.0" offsetY="0.0" upX="0.0" upY="-1.0"/>
            </y:ModelParameter>
          </y:NodeLabel>
          <y:StyleProperties>
            <y:Property class="java.lang.Boolean" name="y.view.ShadowNodePainter.SHADOW_PAINTING" value="true"/>
          </y:StyleProperties>
        </y:GenericNode>
      </data>
    </node>
    <node id="n11">
      <data key="d6">
        <y:GenericNode configuration="com.yworks.entityRelationship.small_entity">
          <y:Geometry height="30.0" width="115.876953125" x="513.251953125" y="-477.4662698412698"/>
          <y:Fill color="#C0C0C0" color2="#B7C9E3" transparent="false"/>
          <y:BorderStyle color="#000000" type="line" width="1.0"/>
          <y:NodeLabel alignment="center" autoSizePolicy="content" fontFamily="Dialog" fontSize="12" fontStyle="plain" hasBackgroundColor="false" hasLineColor="false" height="31.9375" modelName="custom" textColor="#000000" visible="true" width="119.4765625" x="-1.7998046875" y="-0.96875">Заказ материалов
MaterialRequest<y:LabelModel>
              <y:SmartNodeLabelModel distance="4.0"/>
            </y:LabelModel>
            <y:ModelParameter>
              <y:SmartNodeLabelModelParameter labelRatioX="0.0" labelRatioY="0.0" nodeRatioX="0.0" nodeRatioY="0.0" offsetX="0.0" offsetY="0.0" upX="0.0" upY="-1.0"/>
            </y:ModelParameter>
          </y:NodeLabel>
          <y:StyleProperties>
            <y:Property class="java.lang.Boolean" name="y.view.ShadowNodePainter.SHADOW_PAINTING" value="true"/>
          </y:StyleProperties>
        </y:GenericNode>
      </data>
    </node>
    <node id="n12">
      <data key="d6">
        <y:GenericNode configuration="com.yworks.entityRelationship.small_entity">
          <y:Geometry height="30.0" width="53.4921875" x="1486.763671875" y="-421.56388888888887"/>
          <y:Fill color="#C0C0C0" color2="#B7C9E3" transparent="false"/>
          <y:BorderStyle color="#000000" type="line" width="1.0"/>
          <y:NodeLabel alignment="center" autoSizePolicy="content" fontFamily="Dialog" fontSize="12" fontStyle="plain" hasBackgroundColor="false" hasLineColor="false" height="17.96875" modelName="custom" textColor="#000000" visible="true" width="50.20703125" x="1.642578125" y="6.015625">Клиент<y:LabelModel>
              <y:SmartNodeLabelModel distance="4.0"/>
            </y:LabelModel>
            <y:ModelParameter>
              <y:SmartNodeLabelModelParameter labelRatioX="0.0" labelRatioY="0.0" nodeRatioX="0.0" nodeRatioY="0.0" offsetX="0.0" offsetY="0.0" upX="0.0" upY="-1.0"/>
            </y:ModelParameter>
          </y:NodeLabel>
          <y:StyleProperties>
            <y:Property class="java.lang.Boolean" name="y.view.ShadowNodePainter.SHADOW_PAINTING" value="true"/>
          </y:StyleProperties>
        </y:GenericNode>
      </data>
    </node>
    <node id="n13">
      <data key="d6">
        <y:GenericNode configuration="com.yworks.entityRelationship.small_entity">
          <y:Geometry height="30.0" width="124.6953125" x="1221.458984375" y="-414.06388888888887"/>
          <y:Fill color="#C0C0C0" color2="#B7C9E3" transparent="false"/>
          <y:BorderStyle color="#000000" type="line" width="1.0"/>
          <y:NodeLabel alignment="center" autoSizePolicy="content" fontFamily="Dialog" fontSize="12" fontStyle="plain" hasBackgroundColor="false" hasLineColor="false" height="31.9375" modelName="custom" textColor="#000000" visible="true" width="133.005859375" x="-4.1552734375" y="-0.96875">Контактные данные
Contact<y:LabelModel>
              <y:SmartNodeLabelModel distance="4.0"/>
            </y:LabelModel>
            <y:ModelParameter>
              <y:SmartNodeLabelModelParameter labelRatioX="0.0" labelRatioY="0.0" nodeRatioX="0.0" nodeRatioY="0.0" offsetX="0.0" offsetY="0.0" upX="0.0" upY="-1.0"/>
            </y:ModelParameter>
          </y:NodeLabel>
          <y:StyleProperties>
            <y:Property class="java.lang.Boolean" name="y.view.ShadowNodePainter.SHADOW_PAINTING" value="true"/>
          </y:StyleProperties>
        </y:GenericNode>
      </data>
    </node>
    <node id="n14">
      <data key="d6">
        <y:GenericNode configuration="com.yworks.entityRelationship.small_entity">
          <y:Geometry height="30.0" width="146.375" x="973.3466796875" y="-1636.5682539682539"/>
          <y:Fill color="#C0C0C0" color2="#B7C9E3" transparent="false"/>
          <y:BorderStyle color="#000000" type="line" width="2.0"/>
          <y:NodeLabel alignment="center" autoSizePolicy="content" fontFamily="Dialog" fontSize="12" fontStyle="plain" hasBackgroundColor="false" hasLineColor="false" height="31.9375" modelName="custom" textColor="#000000" visible="true" width="152.53515625" x="-3.080078125" y="-0.96875">Информация по работе
WorkInfo<y:LabelModel>
              <y:SmartNodeLabelModel distance="4.0"/>
            </y:LabelModel>
            <y:ModelParameter>
              <y:SmartNodeLabelModelParameter labelRatioX="0.0" labelRatioY="0.0" nodeRatioX="0.0" nodeRatioY="0.0" offsetX="0.0" offsetY="0.0" upX="0.0" upY="-1.0"/>
            </y:ModelParameter>
          </y:NodeLabel>
          <y:StyleProperties>
            <y:Property class="java.lang.Boolean" name="y.view.ShadowNodePainter.SHADOW_PAINTING" value="true"/>
          </y:StyleProperties>
        </y:GenericNode>
      </data>
    </node>
    <node id="n15">
      <data key="d6">
        <y:GenericNode configuration="com.yworks.entityRelationship.small_entity">
          <y:Geometry height="30.0" width="167.45703125" x="962.8056640625" y="-296.28492063492064"/>
          <y:Fill color="#E8EEF7" color2="#B7C9E3" transparent="false"/>
          <y:BorderStyle color="#000000" type="line" width="1.0"/>
          <y:NodeLabel alignment="center" autoSizePolicy="content" fontFamily="Dialog" fontSize="12" fontStyle="plain" hasBackgroundColor="false" hasLineColor="false" height="31.9375" modelName="custom" textColor="#000000" visible="true" width="176.76953125" x="-4.65625" y="-0.96875">Информация по материалу
MaterialInfo<y:LabelModel>
              <y:SmartNodeLabelModel distance="4.0"/>
            </y:LabelModel>
            <y:ModelParameter>
              <y:SmartNodeLabelModelParameter labelRatioX="0.0" labelRatioY="0.0" nodeRatioX="0.0" nodeRatioY="0.0" offsetX="0.0" offsetY="0.0" upX="0.0" upY="-1.0"/>
            </y:ModelParameter>
          </y:NodeLabel>
          <y:StyleProperties>
            <y:Property class="java.lang.Boolean" name="y.view.ShadowNodePainter.SHADOW_PAINTING" value="true"/>
          </y:StyleProperties>
        </y:GenericNode>
      </data>
    </node>
    <node id="n16" yfiles.foldertype="group">
      <data key="d4"/>
      <data key="d6">
        <y:ProxyAutoBoundsNode>
          <y:Realizers active="0">
            <y:GroupNode>
              <y:Geometry height="412.99445994543646" width="1049.3720703125" x="300.6474609375" y="-1139.940888516865"/>
              <y:Fill color="#F5F5F5" transparent="false"/>
              <y:BorderStyle color="#000000" type="dashed" width="1.0"/>
              <y:NodeLabel alignment="right" autoSizePolicy="node_width" backgroundColor="#EBEBEB" borderDistance="0.0" fontFamily="Dialog" fontSize="15" fontStyle="plain" hasLineColor="false" height="21.4609375" modelName="internal" modelPosition="t" textColor="#000000" visible="true" width="1049.3720703125" x="0.0" y="0.0">История заказа</y:NodeLabel>
              <y:Shape type="roundrectangle"/>
              <y:State closed="false" closedHeight="50.0" closedWidth="50.0" innerGraphDisplayEnabled="false"/>
              <y:Insets bottom="15" bottomF="15.0" left="15" leftF="15.0" right="15" rightF="15.0" top="15" topF="15.0"/>
              <y:BorderInsets bottom="1" bottomF="1.0" left="5" leftF="5.0" right="0" rightF="0.0" top="1" topF="1.0001224578372785"/>
            </y:GroupNode>
            <y:GroupNode>
              <y:Geometry height="50.0" width="50.0" x="0.0" y="60.0"/>
              <y:Fill color="#F5F5F5" transparent="false"/>
              <y:BorderStyle color="#000000" type="dashed" width="1.0"/>
              <y:NodeLabel alignment="right" autoSizePolicy="node_width" backgroundColor="#EBEBEB" borderDistance="0.0" fontFamily="Dialog" fontSize="15" fontStyle="plain" hasLineColor="false" height="21.4609375" modelName="internal" modelPosition="t" textColor="#000000" visible="true" width="65.201171875" x="-7.6005859375" y="0.0">Folder 7</y:NodeLabel>
              <y:Shape type="roundrectangle"/>
              <y:State closed="true" closedHeight="50.0" closedWidth="50.0" innerGraphDisplayEnabled="false"/>
              <y:Insets bottom="5" bottomF="5.0" left="5" leftF="5.0" right="5" rightF="5.0" top="5" topF="5.0"/>
              <y:BorderInsets bottom="0" bottomF="0.0" left="0" leftF="0.0" right="0" rightF="0.0" top="0" topF="0.0"/>
            </y:GroupNode>
          </y:Realizers>
        </y:ProxyAutoBoundsNode>
      </data>
      <graph edgedefault="directed" id="n16:">
        <node id="n16::n0" yfiles.foldertype="group">
          <data key="d4"/>
          <data key="d6">
            <y:ProxyAutoBoundsNode>
              <y:Realizers active="0">
                <y:GroupNode>
                  <y:Geometry height="359.5333999875992" width="816.1728515625" x="320.6474609375" y="-1102.4798285590277"/>
                  <y:Fill color="#F5F5F5" transparent="false"/>
                  <y:BorderStyle color="#000000" type="dashed" width="1.0"/>
                  <y:NodeLabel alignment="right" autoSizePolicy="node_width" backgroundColor="#EBEBEB" borderDistance="0.0" fontFamily="Dialog" fontSize="15" fontStyle="plain" hasLineColor="false" height="21.4609375" modelName="internal" modelPosition="t" textColor="#000000" visible="true" width="816.1728515625" x="0.0" y="0.0">Строки истории</y:NodeLabel>
                  <y:Shape type="roundrectangle"/>
                  <y:State closed="false" closedHeight="50.0" closedWidth="50.0" innerGraphDisplayEnabled="false"/>
                  <y:Insets bottom="15" bottomF="15.0" left="15" leftF="15.0" right="15" rightF="15.0" top="15" topF="15.0"/>
                  <y:BorderInsets bottom="1" bottomF="1.0" left="0" leftF="0.0" right="0" rightF="0.0" top="1" topF="1.0001410590277828"/>
                </y:GroupNode>
                <y:GroupNode>
                  <y:Geometry height="50.0" width="50.0" x="0.0" y="60.0"/>
                  <y:Fill color="#F5F5F5" transparent="false"/>
                  <y:BorderStyle color="#000000" type="dashed" width="1.0"/>
                  <y:NodeLabel alignment="right" autoSizePolicy="node_width" backgroundColor="#EBEBEB" borderDistance="0.0" fontFamily="Dialog" fontSize="15" fontStyle="plain" hasLineColor="false" height="21.4609375" modelName="internal" modelPosition="t" textColor="#000000" visible="true" width="65.201171875" x="-7.6005859375" y="0.0">Folder 6</y:NodeLabel>
                  <y:Shape type="roundrectangle"/>
                  <y:State closed="true" closedHeight="50.0" closedWidth="50.0" innerGraphDisplayEnabled="false"/>
                  <y:Insets bottom="5" bottomF="5.0" left="5" leftF="5.0" right="5" rightF="5.0" top="5" topF="5.0"/>
                  <y:BorderInsets bottom="0" bottomF="0.0" left="0" leftF="0.0" right="0" rightF="0.0" top="0" topF="0.0"/>
                </y:GroupNode>
              </y:Realizers>
            </y:ProxyAutoBoundsNode>
          </data>
          <graph edgedefault="directed" id="n16::n0:">
            <node id="n16::n0::n0">
              <data key="d6">
                <y:GenericNode configuration="com.yworks.entityRelationship.small_entity">
                  <y:Geometry height="40.0" width="141.330078125" x="975.869140625" y="-938.9464285714286"/>
                  <y:Fill color="#C0C0C0" color2="#B7C9E3" transparent="false"/>
                  <y:BorderStyle color="#000000" type="dashed" width="1.0"/>
                  <y:NodeLabel alignment="center" autoSizePolicy="content" fontFamily="Dialog" fontSize="12" fontStyle="plain" hasBackgroundColor="false" hasLineColor="false" height="31.9375" modelName="custom" textColor="#000000" visible="true" width="150.572265625" x="-4.62109375" y="4.03125">Строка истории заказа
OrderHistoryRecord<y:LabelModel>
                      <y:SmartNodeLabelModel distance="4.0"/>
                    </y:LabelModel>
                    <y:ModelParameter>
                      <y:SmartNodeLabelModelParameter labelRatioX="0.0" labelRatioY="0.0" nodeRatioX="0.0" nodeRatioY="0.0" offsetX="0.0" offsetY="0.0" upX="0.0" upY="-1.0"/>
                    </y:ModelParameter>
                  </y:NodeLabel>
                  <y:StyleProperties>
                    <y:Property class="java.lang.Boolean" name="y.view.ShadowNodePainter.SHADOW_PAINTING" value="true"/>
                  </y:StyleProperties>
                </y:GenericNode>
              </data>
            </node>
            <node id="n16::n0::n1">
              <data key="d6">
                <y:GenericNode configuration="com.yworks.entityRelationship.small_entity">
                  <y:Geometry height="40.0" width="258.1015625" x="442.1396484375" y="-798.9464285714286"/>
                  <y:Fill color="#C0C0C0" color2="#B7C9E3" transparent="false"/>
                  <y:BorderStyle color="#000000" type="line" width="1.0"/>
                  <y:NodeLabel alignment="center" autoSizePolicy="content" fontFamily="Dialog" fontSize="12" fontStyle="plain" hasBackgroundColor="false" hasLineColor="false" height="31.9375" modelName="custom" textColor="#000000" visible="true" width="284.201171875" x="-13.0498046875" y="4.03125">Строка истории заказа - изменение статуса
OrderHistoryRecordStatusChange<y:LabelModel>
                      <y:SmartNodeLabelModel distance="4.0"/>
                    </y:LabelModel>
                    <y:ModelParameter>
                      <y:SmartNodeLabelModelParameter labelRatioX="0.0" labelRatioY="0.0" nodeRatioX="0.0" nodeRatioY="0.0" offsetX="0.0" offsetY="0.0" upX="0.0" upY="-1.0"/>
                    </y:ModelParameter>
                  </y:NodeLabel>
                  <y:StyleProperties>
                    <y:Property class="java.lang.Boolean" name="y.view.ShadowNodePainter.SHADOW_PAINTING" value="true"/>
                  </y:StyleProperties>
                </y:GenericNode>
              </data>
            </node>
            <node id="n16::n0::n2">
              <data key="d6">
                <y:GenericNode configuration="com.yworks.entityRelationship.small_entity">
                  <y:Geometry height="40.0" width="225.96875" x="458.2060546875" y="-868.9464285714286"/>
                  <y:Fill color="#C0C0C0" color2="#B7C9E3" transparent="false"/>
                  <y:BorderStyle color="#000000" type="line" width="1.0"/>
                  <y:NodeLabel alignment="center" autoSizePolicy="content" fontFamily="Dialog" fontSize="12" fontStyle="plain" hasBackgroundColor="false" hasLineColor="false" height="31.9375" modelName="custom" textColor="#000000" visible="true" width="248.013671875" x="-11.0224609375" y="4.03125">Строка истории заказа - комментарий
OrderHistoryRecordComment<y:LabelModel>
                      <y:SmartNodeLabelModel distance="4.0"/>
                    </y:LabelModel>
                    <y:ModelParameter>
                      <y:SmartNodeLabelModelParameter labelRatioX="0.0" labelRatioY="0.0" nodeRatioX="0.0" nodeRatioY="0.0" offsetX="0.0" offsetY="0.0" upX="0.0" upY="-1.0"/>
                    </y:ModelParameter>
                  </y:NodeLabel>
                  <y:StyleProperties>
                    <y:Property class="java.lang.Boolean" name="y.view.ShadowNodePainter.SHADOW_PAINTING" value="true"/>
                  </y:StyleProperties>
                </y:GenericNode>
              </data>
            </node>
            <node id="n16::n0::n3">
              <data key="d6">
                <y:GenericNode configuration="com.yworks.entityRelationship.small_entity">
                  <y:Geometry height="40.0" width="333.318359375" x="404.53125" y="-938.9464285714286"/>
                  <y:Fill color="#C0C0C0" color2="#B7C9E3" transparent="false"/>
                  <y:BorderStyle color="#000000" type="line" width="1.0"/>
                  <y:NodeLabel alignment="center" autoSizePolicy="content" fontFamily="Dialog" fontSize="12" fontStyle="plain" hasBackgroundColor="false" hasLineColor="false" height="31.9375" modelName="custom" textColor="#000000" visible="true" width="368.388671875" x="-17.53515625" y="4.03125">Строка истории заказа - назначение работ и материалов
OrderHistoryRecordWorkAssigment<y:LabelModel>
                      <y:SmartNodeLabelModel distance="4.0"/>
                    </y:LabelModel>
                    <y:ModelParameter>
                      <y:SmartNodeLabelModelParameter labelRatioX="0.0" labelRatioY="0.0" nodeRatioX="0.0" nodeRatioY="0.0" offsetX="0.0" offsetY="0.0" upX="0.0" upY="-1.0"/>
                    </y:ModelParameter>
                  </y:NodeLabel>
                  <y:StyleProperties>
                    <y:Property class="java.lang.Boolean" name="y.view.ShadowNodePainter.SHADOW_PAINTING" value="true"/>
                  </y:StyleProperties>
                </y:GenericNode>
              </data>
            </node>
            <node id="n16::n0::n4">
              <data key="d6">
                <y:GenericNode configuration="com.yworks.entityRelationship.small_entity">
                  <y:Geometry height="30.0" width="284.01171875" x="429.1845703125" y="-1064.05"/>
                  <y:Fill color="#C0C0C0" color2="#B7C9E3" transparent="false"/>
                  <y:BorderStyle color="#000000" type="line" width="1.0"/>
                  <y:NodeLabel alignment="center" autoSizePolicy="content" fontFamily="Dialog" fontSize="12" fontStyle="plain" hasBackgroundColor="false" hasLineColor="false" height="31.9375" modelName="custom" textColor="#000000" visible="true" width="314.236328125" x="-15.1123046875" y="-0.96875">Строка истории заказа - назначить исполнителя
OrdersHistoryRecordAssignEmployee<y:LabelModel>
                      <y:SmartNodeLabelModel distance="4.0"/>
                    </y:LabelModel>
                    <y:ModelParameter>
                      <y:SmartNodeLabelModelParameter labelRatioX="0.0" labelRatioY="0.0" nodeRatioX="0.0" nodeRatioY="0.0" offsetX="0.0" offsetY="0.0" upX="0.0" upY="-1.0"/>
                    </y:ModelParameter>
                  </y:NodeLabel>
                  <y:StyleProperties>
                    <y:Property class="java.lang.Boolean" name="y.view.ShadowNodePainter.SHADOW_PAINTING" value="true"/>
                  </y:StyleProperties>
                </y:GenericNode>
              </data>
            </node>
            <node id="n16::n0::n5">
              <data key="d6">
                <y:GenericNode configuration="com.yworks.entityRelationship.small_entity">
                  <y:Geometry height="30.0" width="424.455078125" x="358.962890625" y="-1000.6476190476191"/>
                  <y:Fill color="#C0C0C0" color2="#B7C9E3" transparent="false"/>
                  <y:BorderStyle color="#000000" type="line" width="1.0"/>
                  <y:NodeLabel alignment="center" autoSizePolicy="content" fontFamily="Dialog" fontSize="12" fontStyle="plain" hasBackgroundColor="false" hasLineColor="false" height="31.9375" modelName="custom" textColor="#000000" visible="true" width="471.0859375" x="-23.3154296875" y="-0.96875">Строка истории заказа - использование материалов и выполнение работ
OrderHistoryRecordWork<y:LabelModel>
                      <y:SmartNodeLabelModel distance="4.0"/>
                    </y:LabelModel>
                    <y:ModelParameter>
                      <y:SmartNodeLabelModelParameter labelRatioX="0.0" labelRatioY="0.0" nodeRatioX="0.0" nodeRatioY="0.0" offsetX="0.0" offsetY="0.0" upX="0.0" upY="-1.0"/>
                    </y:ModelParameter>
                  </y:NodeLabel>
                  <y:StyleProperties>
                    <y:Property class="java.lang.Boolean" name="y.view.ShadowNodePainter.SHADOW_PAINTING" value="true"/>
                  </y:StyleProperties>
                </y:GenericNode>
              </data>
            </node>
          </graph>
        </node>
        <node id="n16::n1">
          <data key="d6">
            <y:GenericNode configuration="com.yworks.entityRelationship.small_entity">
              <y:Geometry height="30.0" width="100.279296875" x="1233.6669921875" y="-941.4464285714286"/>
              <y:Fill color="#C0C0C0" color2="#B7C9E3" transparent="false"/>
              <y:BorderStyle color="#000000" type="line" width="1.0"/>
              <y:NodeLabel alignment="center" autoSizePolicy="content" fontFamily="Dialog" fontSize="12" fontStyle="plain" hasBackgroundColor="false" hasLineColor="false" height="31.9375" modelName="custom" textColor="#000000" visible="true" width="102.42578125" x="-1.0732421875" y="-0.96875">История заказа
OrderHistory<y:LabelModel>
                  <y:SmartNodeLabelModel distance="4.0"/>
                </y:LabelModel>
                <y:ModelParameter>
                  <y:SmartNodeLabelModelParameter labelRatioX="0.0" labelRatioY="0.0" nodeRatioX="0.0" nodeRatioY="0.0" offsetX="0.0" offsetY="0.0" upX="0.0" upY="-1.0"/>
                </y:ModelParameter>
              </y:NodeLabel>
              <y:StyleProperties>
                <y:Property class="java.lang.Boolean" name="y.view.ShadowNodePainter.SHADOW_PAINTING" value="true"/>
              </y:StyleProperties>
            </y:GenericNode>
          </data>
        </node>
      </graph>
    </node>
    <node id="n17">
      <data key="d6">
        <y:GenericNode configuration="com.yworks.entityRelationship.small_entity">
          <y:Geometry height="40.0" width="50.673828125" x="1021.197265625" y="-1708.2694444444444"/>
          <y:Fill color="#C0C0C0" color2="#B7C9E3" transparent="false"/>
          <y:BorderStyle color="#000000" type="line" width="1.0"/>
          <y:NodeLabel alignment="center" autoSizePolicy="content" fontFamily="Dialog" fontSize="12" fontStyle="plain" hasBackgroundColor="false" hasLineColor="false" height="31.9375" modelName="custom" textColor="#000000" visible="true" width="44.564453125" x="3.0546875" y="4.03125">Заказ
Orders<y:LabelModel>
              <y:SmartNodeLabelModel distance="4.0"/>
            </y:LabelModel>
            <y:ModelParameter>
              <y:SmartNodeLabelModelParameter labelRatioX="0.0" labelRatioY="0.0" nodeRatioX="0.0" nodeRatioY="0.0" offsetX="0.0" offsetY="0.0" upX="0.0" upY="-1.0"/>
            </y:ModelParameter>
          </y:NodeLabel>
          <y:StyleProperties>
            <y:Property class="java.lang.Boolean" name="y.view.ShadowNodePainter.SHADOW_PAINTING" value="true"/>
          </y:StyleProperties>
        </y:GenericNode>
      </data>
    </node>
    <node id="n18" yfiles.foldertype="group">
      <data key="d4"/>
      <data key="d6">
        <y:ProxyAutoBoundsNode>
          <y:Realizers active="0">
            <y:GroupNode>
              <y:Geometry height="85.39859716021829" width="1187.9208984375" x="509.3896484375" y="-1824.4004634796627"/>
              <y:Fill color="#F5F5F5" transparent="false"/>
              <y:BorderStyle color="#000000" type="dashed" width="1.0"/>
              <y:NodeLabel alignment="right" autoSizePolicy="node_width" backgroundColor="#EBEBEB" borderDistance="0.0" fontFamily="Dialog" fontSize="15" fontStyle="plain" hasLineColor="false" height="21.4609375" modelName="internal" modelPosition="t" textColor="#000000" visible="true" width="1187.9208984375" x="0.0" y="0.0">Список заказов</y:NodeLabel>
              <y:Shape type="roundrectangle"/>
              <y:State closed="false" closedHeight="50.0" closedWidth="50.0" innerGraphDisplayEnabled="false"/>
              <y:Insets bottom="15" bottomF="15.0" left="15" leftF="15.0" right="15" rightF="15.0" top="15" topF="15.0"/>
              <y:BorderInsets bottom="1" bottomF="1.0000186011905043" left="0" leftF="0.0" right="0" rightF="0.0" top="1" topF="1.0001410590277828"/>
            </y:GroupNode>
            <y:GroupNode>
              <y:Geometry height="50.0" width="50.0" x="0.0" y="60.0"/>
              <y:Fill color="#F5F5F5" transparent="false"/>
              <y:BorderStyle color="#000000" type="dashed" width="1.0"/>
              <y:NodeLabel alignment="right" autoSizePolicy="node_width" backgroundColor="#EBEBEB" borderDistance="0.0" fontFamily="Dialog" fontSize="15" fontStyle="plain" hasLineColor="false" height="21.4609375" modelName="internal" modelPosition="t" textColor="#000000" visible="true" width="65.201171875" x="-7.6005859375" y="0.0">Folder 8</y:NodeLabel>
              <y:Shape type="roundrectangle"/>
              <y:State closed="true" closedHeight="50.0" closedWidth="50.0" innerGraphDisplayEnabled="false"/>
              <y:Insets bottom="5" bottomF="5.0" left="5" leftF="5.0" right="5" rightF="5.0" top="5" topF="5.0"/>
              <y:BorderInsets bottom="0" bottomF="0.0" left="0" leftF="0.0" right="0" rightF="0.0" top="0" topF="0.0"/>
            </y:GroupNode>
          </y:Realizers>
        </y:ProxyAutoBoundsNode>
      </data>
      <graph edgedefault="directed" id="n18:">
        <node id="n18::n0">
          <data key="d6">
            <y:GenericNode configuration="com.yworks.entityRelationship.small_entity">
              <y:Geometry height="30.0" width="99.775390625" x="1581.3447265625" y="-1785.970634920635"/>
              <y:Fill color="#C0C0C0" color2="#B7C9E3" transparent="false"/>
              <y:BorderStyle color="#000000" type="line" width="1.0"/>
              <y:NodeLabel alignment="center" autoSizePolicy="content" fontFamily="Dialog" fontSize="12" fontStyle="plain" hasBackgroundColor="false" hasLineColor="false" height="31.9375" modelName="custom" textColor="#000000" visible="true" width="102.15625" x="-1.1904296875" y="-0.96875">Список заказов
OrderList<y:LabelModel>
                  <y:SmartNodeLabelModel distance="4.0"/>
                </y:LabelModel>
                <y:ModelParameter>
                  <y:SmartNodeLabelModelParameter labelRatioX="0.0" labelRatioY="0.0" nodeRatioX="0.0" nodeRatioY="0.0" offsetX="0.0" offsetY="0.0" upX="0.0" upY="-1.0"/>
                </y:ModelParameter>
              </y:NodeLabel>
              <y:StyleProperties>
                <y:Property class="java.lang.Boolean" name="y.view.ShadowNodePainter.SHADOW_PAINTING" value="true"/>
              </y:StyleProperties>
            </y:GenericNode>
          </data>
        </node>
        <node id="n18::n1">
          <data key="d6">
            <y:GenericNode configuration="com.yworks.entityRelationship.small_entity">
              <y:Geometry height="30.0" width="87.353515625" x="527.513671875" y="-1785.970634920635"/>
              <y:Fill color="#C0C0C0" color2="#B7C9E3" transparent="false"/>
              <y:BorderStyle color="#000000" type="line" width="1.0"/>
              <y:NodeLabel alignment="center" autoSizePolicy="content" fontFamily="Dialog" fontSize="12" fontStyle="plain" hasBackgroundColor="false" hasLineColor="false" height="17.96875" modelName="custom" textColor="#000000" visible="true" width="93.6015625" x="-3.1240234375" y="6.015625">OrderListOrder<y:LabelModel>
                  <y:SmartNodeLabelModel distance="4.0"/>
                </y:LabelModel>
                <y:ModelParameter>
                  <y:SmartNodeLabelModelParameter labelRatioX="0.0" labelRatioY="0.0" nodeRatioX="0.0" nodeRatioY="0.0" offsetX="0.0" offsetY="0.0" upX="0.0" upY="-1.0"/>
                </y:ModelParameter>
              </y:NodeLabel>
              <y:StyleProperties>
                <y:Property class="java.lang.Boolean" name="y.view.ShadowNodePainter.SHADOW_PAINTING" value="true"/>
              </y:StyleProperties>
            </y:GenericNode>
          </data>
        </node>
      </graph>
    </node>
    <edge id="n16::n0::e0" source="n16::n0::n1" target="n16::n0::n0">
      <data key="d10">
        <y:PolyLineEdge>
          <y:Path sx="129.05078125" sy="-13.333333333333332" tx="-70.6650390625" ty="16.0">
            <y:Point x="903.41796875" y="-792.2797619047619"/>
            <y:Point x="903.41796875" y="-902.9464285714286"/>
          </y:Path>
          <y:LineStyle color="#00FF00" type="line" width="1.0"/>
          <y:Arrows source="crows_foot_optional" target="crows_foot_one"/>
          <y:BendStyle smoothed="false"/>
        </y:PolyLineEdge>
      </data>
    </edge>
    <edge id="n16::n0::e1" source="n16::n0::n2" target="n16::n0::n0">
      <data key="d10">
        <y:PolyLineEdge>
          <y:Path sx="112.984375" sy="-10.0" tx="-70.6650390625" ty="8.0">
            <y:Point x="873.41796875" y="-858.9464285714286"/>
            <y:Point x="873.41796875" y="-910.9464285714286"/>
          </y:Path>
          <y:LineStyle color="#00FF00" type="line" width="1.0"/>
          <y:Arrows source="crows_foot_optional" target="crows_foot_one"/>
          <y:BendStyle smoothed="false"/>
        </y:PolyLineEdge>
      </data>
    </edge>
    <edge id="n3::e0" source="n3::n1" target="n3::n0">
      <data key="d8"/>
      <data key="d10">
        <y:PolyLineEdge>
          <y:Path sx="82.2109375" sy="-7.5" tx="-62.16015625" ty="1.875">
            <y:Point x="683.4013671875" y="-368.1873015873016"/>
            <y:Point x="683.4013671875" y="-358.8123015873016"/>
          </y:Path>
          <y:LineStyle color="#00FF00" type="line" width="1.0"/>
          <y:Arrows source="crows_foot_many" target="crows_foot_one"/>
          <y:EdgeLabel alignment="center" configuration="AutoFlippingLabel" distance="2.0" fontFamily="Dialog" fontSize="12" fontStyle="plain" hasBackgroundColor="false" hasLineColor="false" hasText="false" height="4.0" modelName="side_slider" preferredPlacement="right" ratio="0.5016535891434324" textColor="#000000" visible="true" width="4.0" x="159.63144531249998" y="11.374984789651535">
            <y:PreferredPlacementDescriptor angle="0.0" angleOffsetOnRightSide="0" angleReference="absolute" angleRotationOnRightSide="co" distance="-1.0" placement="anywhere" side="right" sideReference="relative_to_edge_flow"/>
          </y:EdgeLabel>
          <y:BendStyle smoothed="false"/>
        </y:PolyLineEdge>
      </data>
    </edge>
    <edge id="n2::e0" source="n2::n1" target="n2::n0">
      <data key="d10">
        <y:PolyLineEdge>
          <y:Path sx="144.4814453125" sy="7.5" tx="-85.404296875" ty="10.0">
            <y:Point x="303.962890625" y="-25.201190476190476"/>
            <y:Point x="303.962890625" y="-16.0"/>
            <y:Point x="696.6494140625" y="-16.0"/>
            <y:Point x="696.6494140625" y="-35.201190476190476"/>
          </y:Path>
          <y:LineStyle color="#00FF00" type="line" width="1.0"/>
          <y:Arrows source="crows_foot_optional" target="crows_foot_one"/>
          <y:BendStyle smoothed="false"/>
        </y:PolyLineEdge>
      </data>
    </edge>
    <edge id="e0" source="n2::n1" target="n16::n0::n5">
      <data key="d10">
        <y:PolyLineEdge>
          <y:Path sx="144.4814453125" sy="-7.5" tx="-212.2275390625" ty="-0.0">
            <y:Point x="303.962890625" y="-40.201190476190476"/>
            <y:Point x="303.962890625" y="-985.6476190476191"/>
          </y:Path>
          <y:LineStyle color="#00FF00" type="line" width="1.0"/>
          <y:Arrows source="crows_foot_one" target="crows_foot_one"/>
          <y:BendStyle smoothed="false"/>
        </y:PolyLineEdge>
      </data>
    </edge>
    <edge id="n2::e1" source="n2::n2" target="n2::n0">
      <data key="d10">
        <y:PolyLineEdge>
          <y:Path sx="110.458984375" sy="7.5" tx="-85.404296875" ty="-0.0"/>
          <y:LineStyle color="#00FF00" type="line" width="1.0"/>
          <y:Arrows source="crows_foot_optional" target="crows_foot_one"/>
          <y:BendStyle smoothed="false"/>
        </y:PolyLineEdge>
      </data>
    </edge>
    <edge id="e1" source="n9" target="n12">
      <data key="d10">
        <y:PolyLineEdge>
          <y:Path sx="141.8681640625" sy="7.5" tx="-26.74609375" ty="-7.5">
            <y:Point x="1440.6748046875" y="-464.9662698412698"/>
            <y:Point x="1440.6748046875" y="-414.06388888888887"/>
          </y:Path>
          <y:LineStyle color="#000000" type="line" width="1.0"/>
          <y:Arrows source="crows_foot_one" target="crows_foot_optional"/>
          <y:EdgeLabel alignment="center" configuration="AutoFlippingLabel" distance="2.0" fontFamily="Dialog" fontSize="12" fontStyle="plain" hasBackgroundColor="false" hasLineColor="false" height="17.96875" modelName="side_slider" preferredPlacement="right" ratio="0.605681939157217" textColor="#000000" visible="true" width="124.966796875" x="-111.966796875" y="31.933639187283006">! Добавить в схему<y:PreferredPlacementDescriptor angle="0.0" angleOffsetOnRightSide="0" angleReference="absolute" angleRotationOnRightSide="co" distance="-1.0" placement="anywhere" side="right" sideReference="relative_to_edge_flow"/>
          </y:EdgeLabel>
          <y:BendStyle smoothed="false"/>
        </y:PolyLineEdge>
      </data>
    </edge>
    <edge id="e2" source="n9" target="n10">
      <data key="d10">
        <y:PolyLineEdge>
          <y:Path sx="141.8681640625" sy="-7.5" tx="-37.8349609375" ty="-7.5"/>
          <y:LineStyle color="#00FF00" type="line" width="1.0"/>
          <y:Arrows source="crows_foot_many_optional" target="crows_foot_one"/>
          <y:BendStyle smoothed="false"/>
        </y:PolyLineEdge>
      </data>
    </edge>
    <edge id="n1::e0" source="n1::n1" target="n1::n0">
      <data key="d10">
        <y:PolyLineEdge>
          <y:Path sx="26.0107421875" sy="-7.5" tx="-47.2978515625" ty="-0.0">
            <y:Point x="1137.4609375" y="-649.3686507936508"/>
            <y:Point x="1137.4609375" y="-643.5698412698413"/>
          </y:Path>
          <y:LineStyle color="#00FF00" type="line" width="1.0"/>
          <y:Arrows source="crows_foot_many_optional" target="crows_foot_one"/>
          <y:BendStyle smoothed="false"/>
        </y:PolyLineEdge>
      </data>
    </edge>
    <edge id="e3" source="n1::n1" target="n9">
      <data key="d10">
        <y:PolyLineEdge>
          <y:Path sx="26.0107421875" sy="7.5" tx="-141.8681640625" ty="-0.0">
            <y:Point x="1122.4609375" y="-634.3686507936508"/>
            <y:Point x="1122.4609375" y="-472.4662698412698"/>
          </y:Path>
          <y:LineStyle color="#00FF00" type="line" width="1.0"/>
          <y:Arrows source="crows_foot_many_optional" target="crows_foot_one_mandatory"/>
          <y:BendStyle smoothed="false"/>
        </y:PolyLineEdge>
      </data>
    </edge>
    <edge id="n16::n0::e2" source="n16::n0::n5" target="n16::n0::n0">
      <data key="d10">
        <y:PolyLineEdge>
          <y:Path sx="212.2275390625" sy="-0.0" tx="-70.6650390625" ty="-8.0">
            <y:Point x="903.41796875" y="-985.6476190476191"/>
            <y:Point x="903.41796875" y="-926.9464285714286"/>
          </y:Path>
          <y:LineStyle color="#00FF00" type="line" width="1.0"/>
          <y:Arrows source="crows_foot_optional" target="crows_foot_one"/>
          <y:BendStyle smoothed="false"/>
        </y:PolyLineEdge>
      </data>
    </edge>
    <edge id="n4::e0" source="n4::n3" target="n4::n1">
      <data key="d10">
        <y:PolyLineEdge>
          <y:Path sx="67.685546875" sy="-7.5" tx="-68.1162109375" ty="-0.0"/>
          <y:LineStyle color="#00FF00" type="line" width="1.0"/>
          <y:Arrows source="crows_foot_optional" target="crows_foot_one"/>
          <y:BendStyle smoothed="false"/>
        </y:PolyLineEdge>
      </data>
    </edge>
    <edge id="n4::e1" source="n4::n2" target="n4::n1">
      <data key="d10">
        <y:PolyLineEdge>
          <y:Path sx="72.0185546875" sy="-0.0" tx="-68.1162109375" ty="-10.0">
            <y:Point x="858.41796875" y="-1395.4126984126983"/>
            <y:Point x="858.41796875" y="-1349.5103174603175"/>
          </y:Path>
          <y:LineStyle color="#00FF00" type="line" width="1.0"/>
          <y:Arrows source="crows_foot_optional" target="crows_foot_one"/>
          <y:BendStyle smoothed="false"/>
        </y:PolyLineEdge>
      </data>
    </edge>
    <edge id="n4::e2" source="n4::n0" target="n4::n1">
      <data key="d10">
        <y:PolyLineEdge>
          <y:Path sx="102.3759765625" sy="-7.5" tx="-68.1162109375" ty="10.0">
            <y:Point x="963.41796875" y="-1276.1079365079365"/>
            <y:Point x="963.41796875" y="-1329.5103174603175"/>
          </y:Path>
          <y:LineStyle color="#00FF00" type="line" width="1.0"/>
          <y:Arrows source="crows_foot_optional" target="crows_foot_one"/>
          <y:BendStyle smoothed="false"/>
        </y:PolyLineEdge>
      </data>
    </edge>
    <edge id="n0::e0" source="n0::n1" target="n0::n0">
      <data key="d10">
        <y:PolyLineEdge>
          <y:Path sx="64.80859375" sy="10.0" tx="-44.7578125" ty="-15.0">
            <y:Point x="665.9990234375" y="-1506.490476190476"/>
            <y:Point x="665.9990234375" y="-1531.490476190476"/>
          </y:Path>
          <y:LineStyle color="#00FF00" type="line" width="1.0"/>
          <y:Arrows source="crows_foot_optional" target="crows_foot_one"/>
          <y:BendStyle smoothed="false"/>
        </y:PolyLineEdge>
      </data>
    </edge>
    <edge id="e4" source="n0::n1" target="n14">
      <data key="d10">
        <y:PolyLineEdge>
          <y:Path sx="64.80859375" sy="-10.0" tx="-73.1875" ty="-0.0">
            <y:Point x="650.9990234375" y="-1526.490476190476"/>
            <y:Point x="650.9990234375" y="-1621.5682539682539"/>
          </y:Path>
          <y:LineStyle color="#00FF00" type="line" width="1.0"/>
          <y:Arrows source="crows_foot_many_optional" target="crows_foot_one"/>
          <y:BendStyle smoothed="false"/>
        </y:PolyLineEdge>
      </data>
    </edge>
    <edge id="n16::n0::e3" source="n16::n0::n4" target="n16::n0::n0">
      <data key="d10">
        <y:PolyLineEdge>
          <y:Path sx="142.005859375" sy="7.5" tx="-70.6650390625" ty="-16.0">
            <y:Point x="918.41796875" y="-1041.55"/>
            <y:Point x="918.41796875" y="-934.9464285714286"/>
          </y:Path>
          <y:LineStyle color="#00FF00" type="line" width="1.0"/>
          <y:Arrows source="crows_foot_optional" target="crows_foot_one"/>
          <y:BendStyle smoothed="false"/>
        </y:PolyLineEdge>
      </data>
    </edge>
    <edge id="n16::n0::e4" source="n16::n0::n3" target="n16::n0::n0">
      <data key="d10">
        <y:PolyLineEdge>
          <y:Path sx="166.6591796875" sy="-0.0" tx="-70.6650390625" ty="-0.0"/>
          <y:LineStyle color="#00FF00" type="line" width="1.0"/>
          <y:Arrows source="crows_foot_optional" target="crows_foot_one"/>
          <y:BendStyle smoothed="false"/>
        </y:PolyLineEdge>
      </data>
    </edge>
    <edge id="e5" source="n16::n0::n1" target="n5">
      <data key="d10">
        <y:PolyLineEdge>
          <y:Path sx="129.05078125" sy="13.333333333333329" tx="-45.970703125" ty="-0.0">
            <y:Point x="798.41796875" y="-765.6130952380952"/>
            <y:Point x="798.41796875" y="-475.7650793650794"/>
          </y:Path>
          <y:LineStyle color="#00FF00" type="line" width="1.0"/>
          <y:Arrows source="crows_foot_many_optional" target="crows_foot_one"/>
          <y:BendStyle smoothed="false"/>
        </y:PolyLineEdge>
      </data>
    </edge>
    <edge id="e6" source="n16::n0::n1" target="n6">
      <data key="d10">
        <y:PolyLineEdge>
          <y:Path sx="129.05078125" sy="-0.0" tx="-60.9267578125" ty="7.5">
            <y:Point x="873.41796875" y="-778.9464285714286"/>
            <y:Point x="873.41796875" y="-534.9662698412699"/>
          </y:Path>
          <y:LineStyle color="#00FF00" type="line" width="1.0"/>
          <y:Arrows source="crows_foot_optional" target="crows_foot_one"/>
          <y:BendStyle smoothed="false"/>
        </y:PolyLineEdge>
      </data>
    </edge>
    <edge id="e7" source="n16::n0::n2" target="n6">
      <data key="d10">
        <y:PolyLineEdge>
          <y:Path sx="112.984375" sy="10.0" tx="-60.9267578125" ty="-7.5">
            <y:Point x="918.41796875" y="-838.9464285714286"/>
            <y:Point x="918.41796875" y="-549.9662698412699"/>
          </y:Path>
          <y:LineStyle color="#00FF00" type="line" width="1.0"/>
          <y:Arrows source="crows_foot_optional" target="crows_foot_one"/>
          <y:BendStyle smoothed="false"/>
        </y:PolyLineEdge>
      </data>
    </edge>
    <edge id="n2::e2" source="n2::n4" target="n2::n0">
      <data key="d10">
        <y:PolyLineEdge>
          <y:Path sx="80.9072265625" sy="7.5" tx="-85.404296875" ty="-10.0">
            <y:Point x="741.6494140625" y="-108.60357142857143"/>
            <y:Point x="741.6494140625" y="-55.201190476190476"/>
          </y:Path>
          <y:LineStyle color="#00FF00" type="line" width="1.0"/>
          <y:Arrows source="crows_foot_optional" target="crows_foot_one"/>
          <y:BendStyle smoothed="false"/>
        </y:PolyLineEdge>
      </data>
    </edge>
    <edge id="e8" source="n11" target="n10">
      <data key="d10">
        <y:PolyLineEdge>
          <y:Path sx="57.9384765625" sy="-0.0" tx="-37.8349609375" ty="7.5">
            <y:Point x="713.4013671875" y="-462.4662698412698"/>
            <y:Point x="713.4013671875" y="-435.7650793650794"/>
            <y:Point x="1455.6748046875" y="-435.7650793650794"/>
            <y:Point x="1455.6748046875" y="-464.9662698412698"/>
          </y:Path>
          <y:LineStyle color="#00FF00" type="line" width="1.0"/>
          <y:Arrows source="crows_foot_many_optional" target="crows_foot_one"/>
          <y:BendStyle smoothed="false"/>
        </y:PolyLineEdge>
      </data>
    </edge>
    <edge id="e9" source="n3::n1" target="n15">
      <data key="d10">
        <y:PolyLineEdge>
          <y:Path sx="82.2109375" sy="7.5" tx="-83.728515625" ty="-0.0">
            <y:Point x="668.4013671875" y="-353.1873015873016"/>
            <y:Point x="668.4013671875" y="-281.28492063492064"/>
          </y:Path>
          <y:LineStyle color="#00FF00" type="line" width="1.0"/>
          <y:Arrows source="crows_foot_many_optional" target="crows_foot_one"/>
          <y:BendStyle smoothed="false"/>
        </y:PolyLineEdge>
      </data>
    </edge>
    <edge id="e10" source="n13" target="n12">
      <data key="d10">
        <y:PolyLineEdge>
          <y:Path sx="62.34765625" sy="-0.0" tx="-26.74609375" ty="7.5"/>
          <y:LineStyle color="#00FF00" type="line" width="1.0"/>
          <y:Arrows source="crows_foot_many_optional" target="crows_foot_one"/>
          <y:BendStyle smoothed="false"/>
        </y:PolyLineEdge>
      </data>
    </edge>
    <edge id="e11" source="n16::n0::n3" target="n0::n0">
      <data key="d10">
        <y:PolyLineEdge>
          <y:Path sx="166.6591796875" sy="-13.333333333333332" tx="-44.7578125" ty="5.0">
            <y:Point x="828.41796875" y="-932.2797619047619"/>
            <y:Point x="828.41796875" y="-1511.490476190476"/>
          </y:Path>
          <y:LineStyle color="#00FF00" type="line" width="1.0"/>
          <y:Arrows source="crows_foot_optional" target="crows_foot_one"/>
          <y:BendStyle smoothed="false"/>
        </y:PolyLineEdge>
      </data>
    </edge>
    <edge id="e12" source="n16::n0::n5" target="n0::n0">
      <data key="d10">
        <y:PolyLineEdge>
          <y:Path sx="212.2275390625" sy="-10.0" tx="-44.7578125" ty="-5.0">
            <y:Point x="813.41796875" y="-995.6476190476191"/>
            <y:Point x="813.41796875" y="-1521.490476190476"/>
          </y:Path>
          <y:LineStyle color="#00FF00" type="line" width="1.0"/>
          <y:Arrows source="crows_foot_optional" target="crows_foot_one"/>
          <y:BendStyle smoothed="false"/>
        </y:PolyLineEdge>
      </data>
    </edge>
    <edge id="e13" source="n8" target="n0::n0">
      <data key="d10">
        <y:PolyLineEdge>
          <y:Path sx="100.6884765625" sy="-7.5" tx="-44.7578125" ty="15.0">
            <y:Point x="843.41796875" y="-687.745238095238"/>
            <y:Point x="843.41796875" y="-1501.490476190476"/>
          </y:Path>
          <y:LineStyle color="#00FF00" type="line" width="1.0"/>
          <y:Arrows source="crows_foot_optional" target="crows_foot_one"/>
          <y:BendStyle smoothed="false"/>
        </y:PolyLineEdge>
      </data>
    </edge>
    <edge id="e14" source="n11" target="n1::n0">
      <data key="d10">
        <y:PolyLineEdge>
          <y:Path sx="57.9384765625" sy="-10.0" tx="-47.2978515625" ty="10.0">
            <y:Point x="644.12890625" y="-472.4662698412698"/>
            <y:Point x="644.12890625" y="-605.1674603174603"/>
            <y:Point x="1137.4609375" y="-605.1674603174603"/>
            <y:Point x="1137.4609375" y="-633.5698412698413"/>
          </y:Path>
          <y:LineStyle color="#00FF00" type="line" width="1.0"/>
          <y:Arrows source="crows_foot_optional" target="crows_foot_one"/>
          <y:BendStyle smoothed="false"/>
        </y:PolyLineEdge>
      </data>
    </edge>
    <edge id="e15" source="n17" target="n1::n0">
      <data key="d10">
        <y:PolyLineEdge>
          <y:Path sx="25.3369140625" sy="10.0" tx="-47.2978515625" ty="-10.0">
            <y:Point x="1152.4609375" y="-1678.2694444444444"/>
            <y:Point x="1152.4609375" y="-653.5698412698413"/>
          </y:Path>
          <y:LineStyle color="#00FF00" type="line" width="1.0"/>
          <y:Arrows source="crows_foot_optional" target="crows_foot_one"/>
          <y:BendStyle smoothed="false"/>
        </y:PolyLineEdge>
      </data>
    </edge>
    <edge id="e16" source="n11" target="n3::n0">
      <data key="d10">
        <y:PolyLineEdge>
          <y:Path sx="57.9384765625" sy="10.0" tx="-62.16015625" ty="-1.875">
            <y:Point x="698.4013671875" y="-452.4662698412698"/>
            <y:Point x="698.4013671875" y="-362.5623015873016"/>
          </y:Path>
          <y:LineStyle color="#00FF00" type="line" width="1.0"/>
          <y:Arrows source="crows_foot_optional" target="crows_foot_one"/>
          <y:BendStyle smoothed="false"/>
        </y:PolyLineEdge>
      </data>
    </edge>
    <edge id="e17" source="n16::n0::n5" target="n3::n0">
      <data key="d10">
        <y:PolyLineEdge>
          <y:Path sx="212.2275390625" sy="10.0" tx="-62.16015625" ty="-13.125">
            <y:Point x="888.41796875" y="-975.6476190476191"/>
            <y:Point x="888.41796875" y="-373.8123015873016"/>
          </y:Path>
          <y:LineStyle color="#00FF00" type="line" width="1.0"/>
          <y:Arrows source="crows_foot_optional" target="crows_foot_one"/>
          <y:EdgeLabel alignment="center" configuration="AutoFlippingLabel" distance="2.0" fontFamily="Dialog" fontSize="12" fontStyle="plain" hasBackgroundColor="false" hasLineColor="false" height="17.96875" modelName="side_slider" preferredPlacement="right" ratio="0.4674079734676526" textColor="#000000" visible="true" width="282.765625" x="-179.765625" y="262.8399803524926">Перенести на 'использование материалов?'<y:PreferredPlacementDescriptor angle="0.0" angleOffsetOnRightSide="0" angleReference="absolute" angleRotationOnRightSide="co" distance="-1.0" placement="anywhere" side="right" sideReference="relative_to_edge_flow"/>
          </y:EdgeLabel>
          <y:BendStyle smoothed="false"/>
        </y:PolyLineEdge>
      </data>
    </edge>
    <edge id="e18" source="n16::n0::n3" target="n3::n0">
      <data key="d10">
        <y:PolyLineEdge>
          <y:Path sx="166.6591796875" sy="13.333333333333329" tx="-62.16015625" ty="-9.375">
            <y:Point x="858.41796875" y="-905.6130952380952"/>
            <y:Point x="858.41796875" y="-370.0623015873016"/>
          </y:Path>
          <y:LineStyle color="#00FF00" type="line" width="1.0"/>
          <y:Arrows source="crows_foot_optional" target="crows_foot_one"/>
          <y:BendStyle smoothed="false"/>
        </y:PolyLineEdge>
      </data>
    </edge>
    <edge id="e19" source="n8" target="n3::n0">
      <data key="d10">
        <y:PolyLineEdge>
          <y:Path sx="100.6884765625" sy="7.5" tx="-62.16015625" ty="-5.625">
            <y:Point x="728.4013671875" y="-672.745238095238"/>
            <y:Point x="728.4013671875" y="-366.3123015873016"/>
          </y:Path>
          <y:LineStyle color="#00FF00" type="line" width="1.0"/>
          <y:Arrows source="crows_foot_optional" target="crows_foot_one"/>
          <y:BendStyle smoothed="false"/>
        </y:PolyLineEdge>
      </data>
    </edge>
    <edge id="e20" source="n2::n3" target="n3::n0">
      <data key="d10">
        <y:PolyLineEdge>
          <y:Path sx="101.6435546875" sy="-0.0" tx="-62.16015625" ty="5.625">
            <y:Point x="696.6494140625" y="-179.50595238095238"/>
            <y:Point x="696.6494140625" y="-355.0623015873016"/>
          </y:Path>
          <y:LineStyle color="#00FF00" type="line" width="1.0"/>
          <y:Arrows source="crows_foot_optional" target="crows_foot_one"/>
          <y:BendStyle smoothed="false"/>
        </y:PolyLineEdge>
      </data>
    </edge>
    <edge id="e21" source="n2::n4" target="n3::n0">
      <data key="d10">
        <y:PolyLineEdge>
          <y:Path sx="80.9072265625" sy="-7.5" tx="-62.16015625" ty="9.375">
            <y:Point x="711.6494140625" y="-123.60357142857143"/>
            <y:Point x="711.6494140625" y="-351.3123015873016"/>
          </y:Path>
          <y:LineStyle color="#00FF00" type="line" width="1.0"/>
          <y:Arrows source="crows_foot_optional" target="crows_foot_one"/>
          <y:BendStyle smoothed="false"/>
        </y:PolyLineEdge>
      </data>
    </edge>
    <edge id="e22" source="n2::n2" target="n3::n0">
      <data key="d10">
        <y:PolyLineEdge>
          <y:Path sx="110.458984375" sy="-7.5" tx="-62.16015625" ty="13.125">
            <y:Point x="726.6494140625" y="-60.201190476190476"/>
            <y:Point x="726.6494140625" y="-347.5623015873016"/>
          </y:Path>
          <y:LineStyle color="#00FF00" type="line" width="1.0"/>
          <y:Arrows source="crows_foot_optional" target="crows_foot_one"/>
          <y:BendStyle smoothed="false"/>
        </y:PolyLineEdge>
      </data>
    </edge>
    <edge id="e23" source="n4::n3" target="n7">
      <data key="d10">
        <y:PolyLineEdge>
          <y:Path sx="67.685546875" sy="7.5" tx="-36.5458984375" ty="-7.5">
            <y:Point x="948.41796875" y="-1324.5103174603175"/>
            <y:Point x="948.41796875" y="-1196.7055555555555"/>
          </y:Path>
          <y:LineStyle color="#00FF00" type="line" width="1.0"/>
          <y:Arrows source="crows_foot_many_optional" target="crows_foot_one"/>
          <y:BendStyle smoothed="false"/>
        </y:PolyLineEdge>
      </data>
    </edge>
    <edge id="e24" source="n4::n0" target="n1::n1">
      <data key="d10">
        <y:PolyLineEdge>
          <y:Path sx="102.3759765625" sy="7.5" tx="-26.0107421875" ty="-0.0">
            <y:Point x="933.41796875" y="-1261.1079365079365"/>
            <y:Point x="933.41796875" y="-641.8686507936508"/>
          </y:Path>
          <y:LineStyle color="#00FF00" type="line" width="1.0"/>
          <y:Arrows source="crows_foot_optional" target="crows_foot_one"/>
          <y:BendStyle smoothed="false"/>
        </y:PolyLineEdge>
      </data>
    </edge>
    <edge id="e25" source="n16::n0::n4" target="n7">
      <data key="d10">
        <y:PolyLineEdge>
          <y:Path sx="142.005859375" sy="-7.5" tx="-36.5458984375" ty="7.5">
            <y:Point x="798.41796875" y="-1056.55"/>
            <y:Point x="798.41796875" y="-1181.7055555555555"/>
          </y:Path>
          <y:LineStyle color="#00FF00" type="line" width="1.0"/>
          <y:Arrows source="crows_foot_many_optional" target="crows_foot_one"/>
          <y:BendStyle smoothed="false"/>
        </y:PolyLineEdge>
      </data>
    </edge>
    <edge id="n16::e0" source="n16::n0::n0" target="n16::n1">
      <data key="d10">
        <y:PolyLineEdge>
          <y:Path sx="70.6650390625" sy="-0.0" tx="-50.1396484375" ty="7.5"/>
          <y:LineStyle color="#00FF00" type="line" width="1.0"/>
          <y:Arrows source="crows_foot_many_optional" target="crows_foot_one"/>
          <y:BendStyle smoothed="false"/>
        </y:PolyLineEdge>
      </data>
    </edge>
    <edge id="e26" source="n17" target="n16::n1">
      <data key="d10">
        <y:PolyLineEdge>
          <y:Path sx="25.3369140625" sy="-10.0" tx="-50.1396484375" ty="-7.5">
            <y:Point x="1167.4609375" y="-1698.2694444444444"/>
            <y:Point x="1167.4609375" y="-933.9464285714286"/>
          </y:Path>
          <y:LineStyle color="#00FF00" type="line" width="1.0"/>
          <y:Arrows source="crows_foot_optional" target="crows_foot_one"/>
          <y:BendStyle smoothed="false"/>
        </y:PolyLineEdge>
      </data>
    </edge>
    <edge id="e27" source="n12" target="n18::n0">
      <data key="d10">
        <y:PolyLineEdge>
          <y:Path sx="26.74609375" sy="-0.0" tx="-49.8876953125" ty="7.5">
            <y:Point x="1566.3447265625" y="-406.56388888888887"/>
            <y:Point x="1566.3447265625" y="-1763.470634920635"/>
          </y:Path>
          <y:LineStyle color="#00FF00" type="line" width="1.0"/>
          <y:Arrows source="crows_foot_optional" target="crows_foot_one"/>
          <y:BendStyle smoothed="false"/>
        </y:PolyLineEdge>
      </data>
    </edge>
    <edge id="n18::e0" source="n18::n1" target="n18::n0">
      <data key="d10">
        <y:PolyLineEdge>
          <y:Path sx="43.6767578125" sy="-7.5" tx="-49.8876953125" ty="-7.5"/>
          <y:LineStyle color="#00FF00" type="line" width="1.0"/>
          <y:Arrows source="crows_foot_optional" target="crows_foot_one"/>
          <y:BendStyle smoothed="false"/>
        </y:PolyLineEdge>
      </data>
    </edge>
    <edge id="e28" source="n18::n1" target="n17">
      <data key="d10">
        <y:PolyLineEdge>
          <y:Path sx="43.6767578125" sy="7.5" tx="-25.3369140625" ty="-0.0">
            <y:Point x="632.2060546875" y="-1763.470634920635"/>
            <y:Point x="632.2060546875" y="-1688.2694444444444"/>
          </y:Path>
          <y:LineStyle color="#00FF00" type="line" width="1.0"/>
          <y:Arrows source="crows_foot_many_optional" target="crows_foot_one"/>
          <y:BendStyle smoothed="false"/>
        </y:PolyLineEdge>
      </data>
    </edge>
  </graph>
  <data key="d7">
    <y:Resources/>
  </data>
</graphml>
